<?xml version="1.0" encoding="utf-8"?>
<!-- Generator: Adobe Illustrator 25.2.1, SVG Export Plug-In . SVG Version: 6.00 Build 0)  -->
<svg version="1.1" id="Capa_1" xmlns="http://www.w3.org/2000/svg" xmlns:xlink="http://www.w3.org/1999/xlink" x="0px" y="0px"
	 viewBox="0 0 500 500" style="enable-background:new 0 0 500 500;" xml:space="preserve">
<style type="text/css">
	.st0{clip-path:url(#SVGID_2_);}
	.st1{fill:none;stroke:#F8FCFD;stroke-width:0.4198;stroke-miterlimit:10;}
	.st2{fill:none;stroke:#F8FCFD;stroke-linecap:round;stroke-linejoin:round;stroke-miterlimit:10;}
	.st3{clip-path:url(#SVGID_4_);}
</style>
<g>
	<g>
		<defs>
			<path id="SVGID_1_" d="M133.55,401.32c0.99,0.76,1.99,1.52,2.99,2.26c0.6,0.44,1.2,0.87,1.8,1.3c0.59,0.43,1.19,0.86,1.79,1.28
				c1.03,0.72,2.06,1.43,3.1,2.13c0.18,0.12,0.36,0.25,0.55,0.37c0.28,0.19,0.56,0.39,0.84,0.57c2.61,1.73,5.26,3.39,7.93,4.98
				c0.98,0.58,1.97,1.15,2.97,1.71l-11.22,57.1l36.74,13.95l29.51-50.16c4.49,0.95,9.02,1.74,13.6,2.36
				c0.22,0.03,0.44,0.06,0.66,0.08c1.24,0.16,2.48,0.32,3.73,0.46c0.73,0.08,1.46,0.15,2.19,0.23c0.74,0.07,1.47,0.15,2.21,0.22
				c1.25,0.11,2.5,0.21,3.75,0.3c0.22,0.02,0.43,0.03,0.65,0.05c4.61,0.31,9.21,0.45,13.8,0.42L269.97,496l38.8-6.29l0.48-58.19
				c4.36-1.42,8.68-3,12.96-4.75c0.2-0.08,0.41-0.17,0.61-0.25c1.16-0.48,2.31-0.96,3.47-1.47c0.68-0.29,1.34-0.6,2.01-0.9
				c0.67-0.3,1.34-0.6,2.01-0.91c1.14-0.53,2.27-1.07,3.4-1.62c0.2-0.1,0.4-0.19,0.6-0.29c4.15-2.04,8.2-4.22,12.16-6.54
				l43.84,38.26l30.45-24.85l-28.68-50.63c3.07-3.41,6.02-6.94,8.85-10.6c0.13-0.17,0.26-0.34,0.39-0.52
				c0.62-0.8,1.24-1.6,1.84-2.41c0.15-0.2,0.29-0.4,0.43-0.59c0.44-0.6,0.87-1.2,1.3-1.8c0.43-0.6,0.86-1.19,1.28-1.79
				c0.72-1.03,1.43-2.06,2.13-3.1c0.1-0.15,0.2-0.29,0.3-0.44c0.02-0.04,0.05-0.07,0.07-0.11c2.57-3.84,4.99-7.75,7.26-11.74
				l57.1,11.22l13.95-36.74l-50.16-29.51c0.24-1.12,0.47-2.23,0.69-3.35c0.59-3.06,1.1-6.14,1.54-9.24
				c0.05-0.34,0.08-0.67,0.13-1.01c0.01-0.04,0.01-0.09,0.02-0.13c0.02-0.18,0.04-0.35,0.07-0.53c0.17-1.24,0.32-2.49,0.46-3.73
				c0.08-0.73,0.15-1.46,0.23-2.18c0.07-0.74,0.15-1.47,0.22-2.21c0.02-0.24,0.05-0.49,0.07-0.73c0.09-1.01,0.15-2.01,0.22-3.02
				c0.02-0.22,0.03-0.44,0.05-0.66c0.31-4.61,0.45-9.21,0.42-13.8L496,230.03l-6.29-38.8l-58.19-0.48c-1.42-4.36-3-8.68-4.75-12.95
				c-0.09-0.21-0.18-0.42-0.26-0.63c-0.48-1.15-0.96-2.3-1.46-3.44c-0.3-0.68-0.6-1.36-0.91-2.04c-0.3-0.66-0.59-1.33-0.9-1.99
				c-0.53-1.15-1.08-2.28-1.63-3.42c-0.09-0.19-0.18-0.38-0.28-0.57c-2.04-4.15-4.22-8.2-6.54-12.16l38.26-43.84l-24.85-30.46
				l-50.63,28.68c-3.41-3.07-6.95-6.02-10.6-8.85c-0.17-0.13-0.34-0.26-0.52-0.39c-0.99-0.76-1.99-1.52-3-2.27
				c-0.6-0.44-1.2-0.87-1.8-1.3c-0.6-0.43-1.19-0.86-1.79-1.28c-1.03-0.72-2.06-1.43-3.1-2.13c-0.18-0.12-0.36-0.25-0.55-0.37
				c-3.84-2.57-7.75-4.99-11.74-7.26l11.22-57.1l-36.74-13.95l-29.51,50.16c-4.49-0.95-9.02-1.74-13.6-2.36
				c-0.22-0.03-0.44-0.06-0.66-0.08c-1.24-0.16-2.48-0.32-3.73-0.46c-0.73-0.08-1.46-0.15-2.19-0.23c-0.74-0.07-1.47-0.15-2.21-0.22
				c-1.25-0.11-2.5-0.21-3.75-0.3c-0.22-0.02-0.44-0.03-0.65-0.05c-4.61-0.31-9.21-0.44-13.8-0.42L230.03,4l-38.8,6.29l-0.48,58.19
				c-4.36,1.42-8.68,3.01-12.96,4.76c-0.2,0.08-0.39,0.16-0.59,0.25c-1.17,0.48-2.33,0.97-3.49,1.48c-0.67,0.29-1.33,0.59-2,0.89
				c-0.67,0.3-1.35,0.6-2.02,0.91c-1.14,0.53-2.26,1.07-3.39,1.61c-0.2,0.1-0.41,0.19-0.61,0.29c-4.14,2.04-8.2,4.22-12.15,6.54
				l-43.84-38.27L79.25,71.79l28.68,50.63c-3.06,3.41-6.02,6.94-8.85,10.6c-0.14,0.17-0.27,0.35-0.4,0.52
				c-0.61,0.8-1.23,1.59-1.84,2.4c-0.15,0.2-0.29,0.4-0.43,0.59c-0.44,0.6-0.87,1.2-1.3,1.8c-0.43,0.59-0.86,1.19-1.28,1.78
				c-0.72,1.03-1.43,2.06-2.13,3.1c-0.1,0.15-0.2,0.29-0.3,0.44c-0.02,0.04-0.05,0.07-0.07,0.11c-2.57,3.84-4.99,7.75-7.26,11.74
				l-57.1-11.22l-13.95,36.74l50.16,29.51c-0.95,4.49-1.74,9.03-2.36,13.61c-0.01,0.04-0.01,0.08-0.02,0.12
				c-0.02,0.17-0.04,0.34-0.06,0.5c-0.17,1.25-0.33,2.5-0.47,3.76c-0.08,0.72-0.15,1.44-0.22,2.16c-0.08,0.75-0.16,1.49-0.22,2.24
				c-0.02,0.24-0.05,0.48-0.07,0.72c-0.09,1-0.15,2-0.22,3c-0.02,0.23-0.04,0.45-0.05,0.68c-0.31,4.61-0.44,9.21-0.42,13.79
				L4,269.97l6.29,38.8l58.19,0.48c1.42,4.36,3,8.68,4.75,12.96c0.08,0.2,0.17,0.41,0.25,0.61c0.48,1.16,0.96,2.31,1.47,3.47
				c0.03,0.07,0.06,0.14,0.09,0.21c0.03,0.06,0.05,0.13,0.08,0.19c0.24,0.54,0.49,1.07,0.73,1.61c0.3,0.67,0.6,1.34,0.91,2.01
				c0.53,1.14,1.07,2.27,1.62,3.4c0.1,0.2,0.19,0.4,0.29,0.59c2.04,4.15,4.22,8.2,6.54,12.16l-38.27,43.84l24.85,30.45l50.63-28.68
				c3.41,3.06,6.94,6.02,10.6,8.85C133.19,401.05,133.37,401.18,133.55,401.32z M103.17,197.61c0.37-1.03,0.77-2.04,1.16-3.05
				c0.35-0.93,0.7-1.87,1.07-2.8c0.1-0.24,0.19-0.47,0.29-0.71c9.38-22.84,24.07-43.22,42.78-59.33c0.19-0.17,0.38-0.33,0.58-0.5
				c0.84-0.71,1.69-1.39,2.55-2.08c0.77-0.63,1.53-1.26,2.31-1.88c0.2-0.16,0.4-0.31,0.6-0.47c19.54-15.1,42.45-25.4,66.72-30
				c0.25-0.05,0.5-0.1,0.75-0.14c1.07-0.19,2.15-0.35,3.22-0.53c0.98-0.16,1.97-0.33,2.96-0.48c0.25-0.04,0.51-0.07,0.76-0.1
				c24.47-3.3,49.46-0.77,72.78,7.38c0.24,0.08,0.48,0.17,0.71,0.25c1.04,0.37,2.07,0.78,3.11,1.18c0.92,0.35,1.84,0.68,2.75,1.05
				c0.24,0.1,0.47,0.19,0.71,0.29c22.86,9.38,43.24,24.08,59.36,42.8c0.15,0.18,0.31,0.36,0.46,0.54c0.71,0.84,1.4,1.71,2.1,2.57
				c0.63,0.77,1.28,1.54,1.89,2.33c0.14,0.19,0.29,0.37,0.43,0.56c15.11,19.56,25.42,42.49,30.02,66.77
				c0.05,0.24,0.09,0.48,0.14,0.72c0.18,0.98,0.32,1.97,0.48,2.95c0.18,1.08,0.37,2.16,0.52,3.25c0.03,0.24,0.07,0.49,0.1,0.73
				c3.3,24.48,0.77,49.48-7.39,72.8c-0.08,0.23-0.16,0.47-0.24,0.7c-0.35,0.96-0.72,1.91-1.08,2.87c-0.38,1.01-0.75,2.01-1.15,3.01
				c-0.09,0.23-0.19,0.45-0.28,0.68c-9.38,22.85-24.07,43.23-42.79,59.35c-0.19,0.16-0.38,0.33-0.57,0.49
				c-0.79,0.67-1.6,1.31-2.4,1.96c-0.82,0.67-1.63,1.35-2.47,2.01c-0.2,0.15-0.39,0.31-0.59,0.46c-19.55,15.1-42.46,25.4-66.73,30
				c-0.24,0.05-0.49,0.09-0.73,0.14c-1.01,0.18-2.02,0.33-3.02,0.49c-1.06,0.17-2.11,0.36-3.17,0.51c-0.25,0.03-0.5,0.07-0.74,0.1
				c-24.48,3.3-49.48,0.77-72.79-7.39c-0.24-0.08-0.47-0.16-0.71-0.25c-0.93-0.34-1.86-0.7-2.78-1.05
				c-1.03-0.39-2.07-0.77-3.09-1.18c-0.23-0.09-0.46-0.19-0.69-0.28c-22.84-9.38-43.21-24.06-59.33-42.77
				c-0.17-0.2-0.35-0.4-0.52-0.61c-0.64-0.76-1.26-1.54-1.89-2.32c-0.68-0.83-1.38-1.66-2.04-2.51c-0.16-0.21-0.33-0.42-0.49-0.63
				c-15.08-19.54-25.38-42.44-29.98-66.69c-0.05-0.25-0.1-0.5-0.14-0.75c-0.2-1.09-0.36-2.18-0.53-3.27
				c-0.16-0.97-0.33-1.94-0.47-2.91c-0.04-0.25-0.07-0.51-0.1-0.76c-3.3-24.47-0.77-49.47,7.38-72.78
				C103,198.08,103.08,197.84,103.17,197.61z"/>
		</defs>
		<clipPath id="SVGID_2_">
			<use xlink:href="#SVGID_1_"  style="overflow:visible;"/>
		</clipPath>
		<g class="st0">
			<line class="st1" x1="484.23" y1="-341.67" x2="484.23" y2="392.53"/>
			<line class="st1" x1="430.71" y1="-288.15" x2="430.71" y2="446.05"/>
			<line class="st1" x1="377.19" y1="-234.63" x2="377.19" y2="499.57"/>
			<line class="st1" x1="323.67" y1="-181.11" x2="323.67" y2="553.09"/>
			<line class="st1" x1="510.99" y1="-368.43" x2="510.99" y2="365.77"/>
			<line class="st1" x1="457.47" y1="-314.91" x2="457.47" y2="419.29"/>
			<line class="st1" x1="403.95" y1="-261.39" x2="403.95" y2="472.81"/>
			<line class="st1" x1="350.43" y1="-207.87" x2="350.43" y2="526.33"/>
			<line class="st1" x1="296.91" y1="-154.35" x2="296.91" y2="579.84"/>
			<line class="st1" x1="270.15" y1="-127.59" x2="270.15" y2="606.6"/>
			<line class="st1" x1="243.39" y1="-100.83" x2="243.39" y2="633.36"/>
			<line class="st1" x1="216.63" y1="-74.07" x2="216.63" y2="660.12"/>
			<line class="st1" x1="189.87" y1="-47.31" x2="189.87" y2="686.88"/>
			<line class="st1" x1="163.12" y1="-20.55" x2="163.12" y2="713.64"/>
			<line class="st1" x1="136.36" y1="6.21" x2="136.36" y2="740.4"/>
			<line class="st1" x1="109.6" y1="32.97" x2="109.6" y2="767.16"/>
			<line class="st1" x1="82.84" y1="59.73" x2="82.84" y2="793.92"/>
			<line class="st1" x1="470.85" y1="-328.29" x2="470.85" y2="405.91"/>
			<line class="st1" x1="417.33" y1="-274.77" x2="417.33" y2="459.43"/>
			<line class="st1" x1="363.81" y1="-221.25" x2="363.81" y2="512.95"/>
			<line class="st1" x1="310.29" y1="-167.73" x2="310.29" y2="566.46"/>
			<line class="st1" x1="256.77" y1="-114.21" x2="256.77" y2="619.98"/>
			<line class="st1" x1="203.25" y1="-60.69" x2="203.25" y2="673.5"/>
			<line class="st1" x1="149.74" y1="-7.17" x2="149.74" y2="727.02"/>
			<line class="st1" x1="497.61" y1="-355.05" x2="497.61" y2="379.15"/>
			<line class="st1" x1="444.09" y1="-301.53" x2="444.09" y2="432.67"/>
			<line class="st1" x1="390.57" y1="-248.01" x2="390.57" y2="486.19"/>
			<line class="st1" x1="337.05" y1="-194.49" x2="337.05" y2="539.71"/>
			<line class="st1" x1="283.53" y1="-140.97" x2="283.53" y2="593.22"/>
			<line class="st1" x1="230.01" y1="-87.45" x2="230.01" y2="646.74"/>
			<line class="st1" x1="176.5" y1="-33.93" x2="176.5" y2="700.26"/>
			<line class="st1" x1="122.98" y1="19.59" x2="122.98" y2="753.78"/>
			<line class="st1" x1="96.22" y1="46.35" x2="96.22" y2="780.54"/>
			<line class="st1" x1="69.46" y1="73.11" x2="69.46" y2="807.3"/>
			<line class="st1" x1="56.08" y1="86.49" x2="56.08" y2="820.68"/>
			<line class="st1" x1="42.7" y1="99.87" x2="42.7" y2="834.06"/>
			<line class="st1" x1="29.32" y1="113.25" x2="29.32" y2="847.44"/>
			<line class="st1" x1="15.94" y1="126.63" x2="15.94" y2="860.82"/>
			<line class="st1" x1="2.56" y1="140.01" x2="2.56" y2="874.2"/>
			<line class="st1" x1="-10.82" y1="153.39" x2="-10.82" y2="887.58"/>
		</g>
	</g>
	<g>
		<g>
			<path class="st2" d="M133.55,401.32c0.99,0.76,1.99,1.52,2.99,2.26c0.6,0.44,1.2,0.87,1.8,1.3c0.59,0.43,1.19,0.86,1.79,1.28
				c1.03,0.72,2.06,1.43,3.1,2.13c0.18,0.12,0.36,0.25,0.55,0.37c0.28,0.19,0.56,0.39,0.84,0.57c2.61,1.73,5.26,3.39,7.93,4.98
				c0.98,0.58,1.97,1.15,2.97,1.71l-11.22,57.1l36.74,13.95l29.51-50.16c4.49,0.95,9.02,1.74,13.6,2.36
				c0.22,0.03,0.44,0.06,0.66,0.08c1.24,0.16,2.48,0.32,3.73,0.46c0.73,0.08,1.46,0.15,2.19,0.23c0.74,0.07,1.47,0.15,2.21,0.22
				c1.25,0.11,2.5,0.21,3.75,0.3c0.22,0.02,0.43,0.03,0.65,0.05c4.61,0.31,9.21,0.45,13.8,0.42L269.97,496l38.8-6.29l0.48-58.19
				c4.36-1.42,8.68-3,12.96-4.75c0.2-0.08,0.41-0.17,0.61-0.25c1.16-0.48,2.31-0.96,3.47-1.47c0.68-0.29,1.34-0.6,2.01-0.9
				c0.67-0.3,1.34-0.6,2.01-0.91c1.14-0.53,2.27-1.07,3.4-1.62c0.2-0.1,0.4-0.19,0.6-0.29c4.15-2.04,8.2-4.22,12.16-6.54
				l43.84,38.26l30.45-24.85l-28.68-50.63c3.07-3.41,6.02-6.94,8.85-10.6c0.13-0.17,0.26-0.34,0.39-0.52
				c0.62-0.8,1.24-1.6,1.84-2.41c0.15-0.2,0.29-0.4,0.43-0.59c0.44-0.6,0.87-1.2,1.3-1.8c0.43-0.6,0.86-1.19,1.28-1.79
				c0.72-1.03,1.43-2.06,2.13-3.1c0.1-0.15,0.2-0.29,0.3-0.44c0.02-0.04,0.05-0.07,0.07-0.11c2.57-3.84,4.99-7.75,7.26-11.74
				l57.1,11.22l13.95-36.74l-50.16-29.51c0.24-1.12,0.47-2.23,0.69-3.35c0.59-3.06,1.1-6.14,1.54-9.24
				c0.05-0.34,0.08-0.67,0.13-1.01c0.01-0.04,0.01-0.09,0.02-0.13c0.02-0.18,0.04-0.35,0.07-0.53c0.17-1.24,0.32-2.49,0.46-3.73
				c0.08-0.73,0.15-1.46,0.23-2.18c0.07-0.74,0.15-1.47,0.22-2.21c0.02-0.24,0.05-0.49,0.07-0.73c0.09-1.01,0.15-2.01,0.22-3.02
				c0.02-0.22,0.03-0.44,0.05-0.66c0.31-4.61,0.45-9.21,0.42-13.8L496,230.03l-6.29-38.8l-58.19-0.48c-1.42-4.36-3-8.68-4.75-12.95
				c-0.09-0.21-0.18-0.42-0.26-0.63c-0.48-1.15-0.96-2.3-1.46-3.44c-0.3-0.68-0.6-1.36-0.91-2.04c-0.3-0.66-0.59-1.33-0.9-1.99
				c-0.53-1.15-1.08-2.28-1.63-3.42c-0.09-0.19-0.18-0.38-0.28-0.57c-2.04-4.15-4.22-8.2-6.54-12.16l38.26-43.84l-24.85-30.46
				l-50.63,28.68c-3.41-3.07-6.95-6.02-10.6-8.85c-0.17-0.13-0.34-0.26-0.52-0.39c-0.99-0.76-1.99-1.52-3-2.27
				c-0.6-0.44-1.2-0.87-1.8-1.3c-0.6-0.43-1.19-0.86-1.79-1.28c-1.03-0.72-2.06-1.43-3.1-2.13c-0.18-0.12-0.36-0.25-0.55-0.37
				c-3.84-2.57-7.75-4.99-11.74-7.26l11.22-57.1l-36.74-13.95l-29.51,50.16c-4.49-0.95-9.02-1.74-13.6-2.36
				c-0.22-0.03-0.44-0.06-0.66-0.08c-1.24-0.16-2.48-0.32-3.73-0.46c-0.73-0.08-1.46-0.15-2.19-0.23c-0.74-0.07-1.47-0.15-2.21-0.22
				c-1.25-0.11-2.5-0.21-3.75-0.3c-0.22-0.02-0.44-0.03-0.65-0.05c-4.61-0.31-9.21-0.44-13.8-0.42L230.03,4l-38.8,6.29l-0.48,58.19
				c-4.36,1.42-8.68,3.01-12.96,4.76c-0.2,0.08-0.39,0.16-0.59,0.25c-1.17,0.48-2.33,0.97-3.49,1.48c-0.67,0.29-1.33,0.59-2,0.89
				c-0.67,0.3-1.35,0.6-2.02,0.91c-1.14,0.53-2.26,1.07-3.39,1.61c-0.2,0.1-0.41,0.19-0.61,0.29c-4.14,2.04-8.2,4.22-12.15,6.54
				l-43.84-38.27L79.25,71.79l28.68,50.63c-3.06,3.41-6.02,6.94-8.85,10.6c-0.14,0.17-0.27,0.35-0.4,0.52
				c-0.61,0.8-1.23,1.59-1.84,2.4c-0.15,0.2-0.29,0.4-0.43,0.59c-0.44,0.6-0.87,1.2-1.3,1.8c-0.43,0.59-0.86,1.19-1.28,1.78
				c-0.72,1.03-1.43,2.06-2.13,3.1c-0.1,0.15-0.2,0.29-0.3,0.44c-0.02,0.04-0.05,0.07-0.07,0.11c-2.57,3.84-4.99,7.75-7.26,11.74
				l-57.1-11.22l-13.95,36.74l50.16,29.51c-0.95,4.49-1.74,9.03-2.36,13.61c-0.01,0.04-0.01,0.08-0.02,0.12
				c-0.02,0.17-0.04,0.34-0.06,0.5c-0.17,1.25-0.33,2.5-0.47,3.76c-0.08,0.72-0.15,1.44-0.22,2.16c-0.08,0.75-0.16,1.49-0.22,2.24
				c-0.02,0.24-0.05,0.48-0.07,0.72c-0.09,1-0.15,2-0.22,3c-0.02,0.23-0.04,0.45-0.05,0.68c-0.31,4.61-0.44,9.21-0.42,13.79
				L4,269.97l6.29,38.8l58.19,0.48c1.42,4.36,3,8.68,4.75,12.96c0.08,0.2,0.17,0.41,0.25,0.61c0.48,1.16,0.96,2.31,1.47,3.47
				c0.03,0.07,0.06,0.14,0.09,0.21c0.03,0.06,0.05,0.13,0.08,0.19c0.24,0.54,0.49,1.07,0.73,1.61c0.3,0.67,0.6,1.34,0.91,2.01
				c0.53,1.14,1.07,2.27,1.62,3.4c0.1,0.2,0.19,0.4,0.29,0.59c2.04,4.15,4.22,8.2,6.54,12.16l-38.27,43.84l24.85,30.45l50.63-28.68
				c3.41,3.06,6.94,6.02,10.6,8.85C133.19,401.05,133.37,401.18,133.55,401.32z M103.17,197.61c0.37-1.03,0.77-2.04,1.16-3.05
				c0.35-0.93,0.7-1.87,1.07-2.8c0.1-0.24,0.19-0.47,0.29-0.71c9.38-22.84,24.07-43.22,42.78-59.33c0.19-0.17,0.38-0.33,0.58-0.5
				c0.84-0.71,1.69-1.39,2.55-2.08c0.77-0.63,1.53-1.26,2.31-1.88c0.2-0.16,0.4-0.31,0.6-0.47c19.54-15.1,42.45-25.4,66.72-30
				c0.25-0.05,0.5-0.1,0.75-0.14c1.07-0.19,2.15-0.35,3.22-0.53c0.98-0.16,1.97-0.33,2.96-0.48c0.25-0.04,0.51-0.07,0.76-0.1
				c24.47-3.3,49.46-0.77,72.78,7.38c0.24,0.08,0.48,0.17,0.71,0.25c1.04,0.37,2.07,0.78,3.11,1.18c0.92,0.35,1.84,0.68,2.75,1.05
				c0.24,0.1,0.47,0.19,0.71,0.29c22.86,9.38,43.24,24.08,59.36,42.8c0.15,0.18,0.31,0.36,0.46,0.54c0.71,0.84,1.4,1.71,2.1,2.57
				c0.63,0.77,1.28,1.54,1.89,2.33c0.14,0.19,0.29,0.37,0.43,0.56c15.11,19.56,25.42,42.49,30.02,66.77
				c0.05,0.24,0.09,0.48,0.14,0.72c0.18,0.98,0.32,1.97,0.48,2.95c0.18,1.08,0.37,2.16,0.52,3.25c0.03,0.24,0.07,0.49,0.1,0.73
				c3.3,24.48,0.77,49.48-7.39,72.8c-0.08,0.23-0.16,0.47-0.24,0.7c-0.35,0.96-0.72,1.91-1.08,2.87c-0.38,1.01-0.75,2.01-1.15,3.01
				c-0.09,0.23-0.19,0.45-0.28,0.68c-9.38,22.85-24.07,43.23-42.79,59.35c-0.19,0.16-0.38,0.33-0.57,0.49
				c-0.79,0.67-1.6,1.31-2.4,1.96c-0.82,0.67-1.63,1.35-2.47,2.01c-0.2,0.15-0.39,0.31-0.59,0.46c-19.55,15.1-42.46,25.4-66.73,30
				c-0.24,0.05-0.49,0.09-0.73,0.14c-1.01,0.18-2.02,0.33-3.02,0.49c-1.06,0.17-2.11,0.36-3.17,0.51c-0.25,0.03-0.5,0.07-0.74,0.1
				c-24.48,3.3-49.48,0.77-72.79-7.39c-0.24-0.08-0.47-0.16-0.71-0.25c-0.93-0.34-1.86-0.7-2.78-1.05
				c-1.03-0.39-2.07-0.77-3.09-1.18c-0.23-0.09-0.46-0.19-0.69-0.28c-22.84-9.38-43.21-24.06-59.33-42.77
				c-0.17-0.2-0.35-0.4-0.52-0.61c-0.64-0.76-1.26-1.54-1.89-2.32c-0.68-0.83-1.38-1.66-2.04-2.51c-0.16-0.21-0.33-0.42-0.49-0.63
				c-15.08-19.54-25.38-42.44-29.98-66.69c-0.05-0.25-0.1-0.5-0.14-0.75c-0.2-1.09-0.36-2.18-0.53-3.27
				c-0.16-0.97-0.33-1.94-0.47-2.91c-0.04-0.25-0.07-0.51-0.1-0.76c-3.3-24.47-0.77-49.47,7.38-72.78
				C103,198.08,103.08,197.84,103.17,197.61z"/>
		</g>
	</g>
</g>
<g>
	<g>
		<defs>
			<path id="SVGID_3_" d="M133.55,401.32c0.99,0.76,1.99,1.52,2.99,2.26c0.6,0.44,1.2,0.87,1.8,1.3c0.59,0.43,1.19,0.86,1.79,1.28
				c1.03,0.72,2.06,1.43,3.1,2.13c0.18,0.12,0.36,0.25,0.55,0.37c0.28,0.19,0.56,0.39,0.84,0.57c2.61,1.73,5.26,3.39,7.93,4.98
				c0.98,0.58,1.97,1.15,2.97,1.71l-11.22,57.1l36.74,13.95l29.51-50.16c4.49,0.95,9.02,1.74,13.6,2.36
				c0.22,0.03,0.44,0.06,0.66,0.08c1.24,0.16,2.48,0.32,3.73,0.46c0.73,0.08,1.46,0.15,2.19,0.23c0.74,0.07,1.47,0.15,2.21,0.22
				c1.25,0.11,2.5,0.21,3.75,0.3c0.22,0.02,0.43,0.03,0.65,0.05c4.61,0.31,9.21,0.45,13.8,0.42L269.97,496l38.8-6.29l0.48-58.19
				c4.36-1.42,8.68-3,12.96-4.75c0.2-0.08,0.41-0.17,0.61-0.25c1.16-0.48,2.31-0.96,3.47-1.47c0.68-0.29,1.34-0.6,2.01-0.9
				c0.67-0.3,1.34-0.6,2.01-0.91c1.14-0.53,2.27-1.07,3.4-1.62c0.2-0.1,0.4-0.19,0.6-0.29c4.15-2.04,8.2-4.22,12.16-6.54
				l43.84,38.26l30.45-24.85l-28.68-50.63c3.07-3.41,6.02-6.94,8.85-10.6c0.13-0.17,0.26-0.34,0.39-0.52
				c0.62-0.8,1.24-1.6,1.84-2.41c0.15-0.2,0.29-0.4,0.43-0.59c0.44-0.6,0.87-1.2,1.3-1.8c0.43-0.6,0.86-1.19,1.28-1.79
				c0.72-1.03,1.43-2.06,2.13-3.1c0.1-0.15,0.2-0.29,0.3-0.44c0.02-0.04,0.05-0.07,0.07-0.11c2.57-3.84,4.99-7.75,7.26-11.74
				l57.1,11.22l13.95-36.74l-50.16-29.51c0.24-1.12,0.47-2.23,0.69-3.35c0.59-3.06,1.1-6.14,1.54-9.24
				c0.05-0.34,0.08-0.67,0.13-1.01c0.01-0.04,0.01-0.09,0.02-0.13c0.02-0.18,0.04-0.35,0.07-0.53c0.17-1.24,0.32-2.49,0.46-3.73
				c0.08-0.73,0.15-1.46,0.23-2.18c0.07-0.74,0.15-1.47,0.22-2.21c0.02-0.24,0.05-0.49,0.07-0.73c0.09-1.01,0.15-2.01,0.22-3.02
				c0.02-0.22,0.03-0.44,0.05-0.66c0.31-4.61,0.45-9.21,0.42-13.8L496,230.03l-6.29-38.8l-58.19-0.48c-1.42-4.36-3-8.68-4.75-12.95
				c-0.09-0.21-0.18-0.42-0.26-0.63c-0.48-1.15-0.96-2.3-1.46-3.44c-0.3-0.68-0.6-1.36-0.91-2.04c-0.3-0.66-0.59-1.33-0.9-1.99
				c-0.53-1.15-1.08-2.28-1.63-3.42c-0.09-0.19-0.18-0.38-0.28-0.57c-2.04-4.15-4.22-8.2-6.54-12.16l38.26-43.84l-24.85-30.46
				l-50.63,28.68c-3.41-3.07-6.95-6.02-10.6-8.85c-0.17-0.13-0.34-0.26-0.52-0.39c-0.99-0.76-1.99-1.52-3-2.27
				c-0.6-0.44-1.2-0.87-1.8-1.3c-0.6-0.43-1.19-0.86-1.79-1.28c-1.03-0.72-2.06-1.43-3.1-2.13c-0.18-0.12-0.36-0.25-0.55-0.37
				c-3.84-2.57-7.75-4.99-11.74-7.26l11.22-57.1l-36.74-13.95l-29.51,50.16c-4.49-0.95-9.02-1.74-13.6-2.36
				c-0.22-0.03-0.44-0.06-0.66-0.08c-1.24-0.16-2.48-0.32-3.73-0.46c-0.73-0.08-1.46-0.15-2.19-0.23c-0.74-0.07-1.47-0.15-2.21-0.22
				c-1.25-0.11-2.5-0.21-3.75-0.3c-0.22-0.02-0.44-0.03-0.65-0.05c-4.61-0.31-9.21-0.44-13.8-0.42L230.03,4l-38.8,6.29l-0.48,58.19
				c-4.36,1.42-8.68,3.01-12.96,4.76c-0.2,0.08-0.39,0.16-0.59,0.25c-1.17,0.48-2.33,0.97-3.49,1.48c-0.67,0.29-1.33,0.59-2,0.89
				c-0.67,0.3-1.35,0.6-2.02,0.91c-1.14,0.53-2.26,1.07-3.39,1.61c-0.2,0.1-0.41,0.19-0.61,0.29c-4.14,2.04-8.2,4.22-12.15,6.54
				l-43.84-38.27L79.25,71.79l28.68,50.63c-3.06,3.41-6.02,6.94-8.85,10.6c-0.14,0.17-0.27,0.35-0.4,0.52
				c-0.61,0.8-1.23,1.59-1.84,2.4c-0.15,0.2-0.29,0.4-0.43,0.59c-0.44,0.6-0.87,1.2-1.3,1.8c-0.43,0.59-0.86,1.19-1.28,1.78
				c-0.72,1.03-1.43,2.06-2.13,3.1c-0.1,0.15-0.2,0.29-0.3,0.44c-0.02,0.04-0.05,0.07-0.07,0.11c-2.57,3.84-4.99,7.75-7.26,11.74
				l-57.1-11.22l-13.95,36.74l50.16,29.51c-0.95,4.49-1.74,9.03-2.36,13.61c-0.01,0.04-0.01,0.08-0.02,0.12
				c-0.02,0.17-0.04,0.34-0.06,0.5c-0.17,1.25-0.33,2.5-0.47,3.76c-0.08,0.72-0.15,1.44-0.22,2.16c-0.08,0.75-0.16,1.49-0.22,2.24
				c-0.02,0.24-0.05,0.48-0.07,0.72c-0.09,1-0.15,2-0.22,3c-0.02,0.23-0.04,0.45-0.05,0.68c-0.31,4.61-0.44,9.21-0.42,13.79
				L4,269.97l6.29,38.8l58.19,0.48c1.42,4.36,3,8.68,4.75,12.96c0.08,0.2,0.17,0.41,0.25,0.61c0.48,1.16,0.96,2.31,1.47,3.47
				c0.03,0.07,0.06,0.14,0.09,0.21c0.03,0.06,0.05,0.13,0.08,0.19c0.24,0.54,0.49,1.07,0.73,1.61c0.3,0.67,0.6,1.34,0.91,2.01
				c0.53,1.14,1.07,2.27,1.62,3.4c0.1,0.2,0.19,0.4,0.29,0.59c2.04,4.15,4.22,8.2,6.54,12.16l-38.27,43.84l24.85,30.45l50.63-28.68
				c3.41,3.06,6.94,6.02,10.6,8.85C133.19,401.05,133.37,401.18,133.55,401.32z M103.17,197.61c0.37-1.03,0.77-2.04,1.16-3.05
				c0.35-0.93,0.7-1.87,1.07-2.8c0.1-0.24,0.19-0.47,0.29-0.71c9.38-22.84,24.07-43.22,42.78-59.33c0.19-0.17,0.38-0.33,0.58-0.5
				c0.84-0.71,1.69-1.39,2.55-2.08c0.77-0.63,1.53-1.26,2.31-1.88c0.2-0.16,0.4-0.31,0.6-0.47c19.54-15.1,42.45-25.4,66.72-30
				c0.25-0.05,0.5-0.1,0.75-0.14c1.07-0.19,2.15-0.35,3.22-0.53c0.98-0.16,1.97-0.33,2.96-0.48c0.25-0.04,0.51-0.07,0.76-0.1
				c24.47-3.3,49.46-0.77,72.78,7.38c0.24,0.08,0.48,0.17,0.71,0.25c1.04,0.37,2.07,0.78,3.11,1.18c0.92,0.35,1.84,0.68,2.75,1.05
				c0.24,0.1,0.47,0.19,0.71,0.29c22.86,9.38,43.24,24.08,59.36,42.8c0.15,0.18,0.31,0.36,0.46,0.54c0.71,0.84,1.4,1.71,2.1,2.57
				c0.63,0.77,1.28,1.54,1.89,2.33c0.14,0.19,0.29,0.37,0.43,0.56c15.11,19.56,25.42,42.49,30.02,66.77
				c0.05,0.24,0.09,0.48,0.14,0.72c0.18,0.98,0.32,1.97,0.48,2.95c0.18,1.08,0.37,2.16,0.52,3.25c0.03,0.24,0.07,0.49,0.1,0.73
				c3.3,24.48,0.77,49.48-7.39,72.8c-0.08,0.23-0.16,0.47-0.24,0.7c-0.35,0.96-0.72,1.91-1.08,2.87c-0.38,1.01-0.75,2.01-1.15,3.01
				c-0.09,0.23-0.19,0.45-0.28,0.68c-9.38,22.85-24.07,43.23-42.79,59.35c-0.19,0.16-0.38,0.33-0.57,0.49
				c-0.79,0.67-1.6,1.31-2.4,1.96c-0.82,0.67-1.63,1.35-2.47,2.01c-0.2,0.15-0.39,0.31-0.59,0.46c-19.55,15.1-42.46,25.4-66.73,30
				c-0.24,0.05-0.49,0.09-0.73,0.14c-1.01,0.18-2.02,0.33-3.02,0.49c-1.06,0.17-2.11,0.36-3.17,0.51c-0.25,0.03-0.5,0.07-0.74,0.1
				c-24.48,3.3-49.48,0.77-72.79-7.39c-0.24-0.08-0.47-0.16-0.71-0.25c-0.93-0.34-1.86-0.7-2.78-1.05
				c-1.03-0.39-2.07-0.77-3.09-1.18c-0.23-0.09-0.46-0.19-0.69-0.28c-22.84-9.38-43.21-24.06-59.33-42.77
				c-0.17-0.2-0.35-0.4-0.52-0.61c-0.64-0.76-1.26-1.54-1.89-2.32c-0.68-0.83-1.38-1.66-2.04-2.51c-0.16-0.21-0.33-0.42-0.49-0.63
				c-15.08-19.54-25.38-42.44-29.98-66.69c-0.05-0.25-0.1-0.5-0.14-0.75c-0.2-1.09-0.36-2.18-0.53-3.27
				c-0.16-0.97-0.33-1.94-0.47-2.91c-0.04-0.25-0.07-0.51-0.1-0.76c-3.3-24.47-0.77-49.47,7.38-72.78
				C103,198.08,103.08,197.84,103.17,197.61z"/>
		</defs>
		<clipPath id="SVGID_4_">
			<use xlink:href="#SVGID_3_"  style="overflow:visible;"/>
		</clipPath>
		<g class="st3">
			<line class="st1" x1="484.23" y1="-341.67" x2="484.23" y2="392.53"/>
			<line class="st1" x1="430.71" y1="-288.15" x2="430.71" y2="446.05"/>
			<line class="st1" x1="377.19" y1="-234.63" x2="377.19" y2="499.57"/>
			<line class="st1" x1="323.67" y1="-181.11" x2="323.67" y2="553.09"/>
			<line class="st1" x1="510.99" y1="-368.43" x2="510.99" y2="365.77"/>
			<line class="st1" x1="457.47" y1="-314.91" x2="457.47" y2="419.29"/>
			<line class="st1" x1="403.95" y1="-261.39" x2="403.95" y2="472.81"/>
			<line class="st1" x1="350.43" y1="-207.87" x2="350.43" y2="526.33"/>
			<line class="st1" x1="296.91" y1="-154.35" x2="296.91" y2="579.84"/>
			<line class="st1" x1="270.15" y1="-127.59" x2="270.15" y2="606.6"/>
			<line class="st1" x1="243.39" y1="-100.83" x2="243.39" y2="633.36"/>
			<line class="st1" x1="216.63" y1="-74.07" x2="216.63" y2="660.12"/>
			<line class="st1" x1="189.87" y1="-47.31" x2="189.87" y2="686.88"/>
			<line class="st1" x1="163.12" y1="-20.55" x2="163.12" y2="713.64"/>
			<line class="st1" x1="136.36" y1="6.21" x2="136.36" y2="740.4"/>
			<line class="st1" x1="109.6" y1="32.97" x2="109.6" y2="767.16"/>
			<line class="st1" x1="82.84" y1="59.73" x2="82.84" y2="793.92"/>
			<line class="st1" x1="470.85" y1="-328.29" x2="470.85" y2="405.91"/>
			<line class="st1" x1="417.33" y1="-274.77" x2="417.33" y2="459.43"/>
			<line class="st1" x1="363.81" y1="-221.25" x2="363.81" y2="512.95"/>
			<line class="st1" x1="310.29" y1="-167.73" x2="310.29" y2="566.46"/>
			<line class="st1" x1="256.77" y1="-114.21" x2="256.77" y2="619.98"/>
			<line class="st1" x1="203.25" y1="-60.69" x2="203.25" y2="673.5"/>
			<line class="st1" x1="149.74" y1="-7.17" x2="149.74" y2="727.02"/>
			<line class="st1" x1="497.61" y1="-355.05" x2="497.61" y2="379.15"/>
			<line class="st1" x1="444.09" y1="-301.53" x2="444.09" y2="432.67"/>
			<line class="st1" x1="390.57" y1="-248.01" x2="390.57" y2="486.19"/>
			<line class="st1" x1="337.05" y1="-194.49" x2="337.05" y2="539.71"/>
			<line class="st1" x1="283.53" y1="-140.97" x2="283.53" y2="593.22"/>
			<line class="st1" x1="230.01" y1="-87.45" x2="230.01" y2="646.74"/>
			<line class="st1" x1="176.5" y1="-33.93" x2="176.5" y2="700.26"/>
			<line class="st1" x1="122.98" y1="19.59" x2="122.98" y2="753.78"/>
			<line class="st1" x1="96.22" y1="46.35" x2="96.22" y2="780.54"/>
			<line class="st1" x1="69.46" y1="73.11" x2="69.46" y2="807.3"/>
			<line class="st1" x1="56.08" y1="86.49" x2="56.08" y2="820.68"/>
			<line class="st1" x1="42.7" y1="99.87" x2="42.7" y2="834.06"/>
			<line class="st1" x1="29.32" y1="113.25" x2="29.32" y2="847.44"/>
			<line class="st1" x1="15.94" y1="126.63" x2="15.94" y2="860.82"/>
			<line class="st1" x1="2.56" y1="140.01" x2="2.56" y2="874.2"/>
			<line class="st1" x1="-10.82" y1="153.39" x2="-10.82" y2="887.58"/>
		</g>
	</g>
	<g>
		<g>
			<path class="st2" d="M133.55,401.32c0.99,0.76,1.99,1.52,2.99,2.26c0.6,0.44,1.2,0.87,1.8,1.3c0.59,0.43,1.19,0.86,1.79,1.28
				c1.03,0.72,2.06,1.43,3.1,2.13c0.18,0.12,0.36,0.25,0.55,0.37c0.28,0.19,0.56,0.39,0.84,0.57c2.61,1.73,5.26,3.39,7.93,4.98
				c0.98,0.58,1.97,1.15,2.97,1.71l-11.22,57.1l36.74,13.95l29.51-50.16c4.49,0.95,9.02,1.74,13.6,2.36
				c0.22,0.03,0.44,0.06,0.66,0.08c1.24,0.16,2.48,0.32,3.73,0.46c0.73,0.08,1.46,0.15,2.19,0.23c0.74,0.07,1.47,0.15,2.21,0.22
				c1.25,0.11,2.5,0.21,3.75,0.3c0.22,0.02,0.43,0.03,0.65,0.05c4.61,0.31,9.21,0.45,13.8,0.42L269.97,496l38.8-6.29l0.48-58.19
				c4.36-1.42,8.68-3,12.96-4.75c0.2-0.08,0.41-0.17,0.61-0.25c1.16-0.48,2.31-0.96,3.47-1.47c0.68-0.29,1.34-0.6,2.01-0.9
				c0.67-0.3,1.34-0.6,2.01-0.91c1.14-0.53,2.27-1.07,3.4-1.62c0.2-0.1,0.4-0.19,0.6-0.29c4.15-2.04,8.2-4.22,12.16-6.54
				l43.84,38.26l30.45-24.85l-28.68-50.63c3.07-3.41,6.02-6.94,8.85-10.6c0.13-0.17,0.26-0.34,0.39-0.52
				c0.62-0.8,1.24-1.6,1.84-2.41c0.15-0.2,0.29-0.4,0.43-0.59c0.44-0.6,0.87-1.2,1.3-1.8c0.43-0.6,0.86-1.19,1.28-1.79
				c0.72-1.03,1.43-2.06,2.13-3.1c0.1-0.15,0.2-0.29,0.3-0.44c0.02-0.04,0.05-0.07,0.07-0.11c2.57-3.84,4.99-7.75,7.26-11.74
				l57.1,11.22l13.95-36.74l-50.16-29.51c0.24-1.12,0.47-2.23,0.69-3.35c0.59-3.06,1.1-6.14,1.54-9.24
				c0.05-0.34,0.08-0.67,0.13-1.01c0.01-0.04,0.01-0.09,0.02-0.13c0.02-0.18,0.04-0.35,0.07-0.53c0.17-1.24,0.32-2.49,0.46-3.73
				c0.08-0.73,0.15-1.46,0.23-2.18c0.07-0.74,0.15-1.47,0.22-2.21c0.02-0.24,0.05-0.49,0.07-0.73c0.09-1.01,0.15-2.01,0.22-3.02
				c0.02-0.22,0.03-0.44,0.05-0.66c0.31-4.61,0.45-9.21,0.42-13.8L496,230.03l-6.29-38.8l-58.19-0.48c-1.42-4.36-3-8.68-4.75-12.95
				c-0.09-0.21-0.18-0.42-0.26-0.63c-0.48-1.15-0.96-2.3-1.46-3.44c-0.3-0.68-0.6-1.36-0.91-2.04c-0.3-0.66-0.59-1.33-0.9-1.99
				c-0.53-1.15-1.08-2.28-1.63-3.42c-0.09-0.19-0.18-0.38-0.28-0.57c-2.04-4.15-4.22-8.2-6.54-12.16l38.26-43.84l-24.85-30.46
				l-50.63,28.68c-3.41-3.07-6.95-6.02-10.6-8.85c-0.17-0.13-0.34-0.26-0.52-0.39c-0.99-0.76-1.99-1.52-3-2.27
				c-0.6-0.44-1.2-0.87-1.8-1.3c-0.6-0.43-1.19-0.86-1.79-1.28c-1.03-0.72-2.06-1.43-3.1-2.13c-0.18-0.12-0.36-0.25-0.55-0.37
				c-3.84-2.57-7.75-4.99-11.74-7.26l11.22-57.1l-36.74-13.95l-29.51,50.16c-4.49-0.95-9.02-1.74-13.6-2.36
				c-0.22-0.03-0.44-0.06-0.66-0.08c-1.24-0.16-2.48-0.32-3.73-0.46c-0.73-0.08-1.46-0.15-2.19-0.23c-0.74-0.07-1.47-0.15-2.21-0.22
				c-1.25-0.11-2.5-0.21-3.75-0.3c-0.22-0.02-0.44-0.03-0.65-0.05c-4.61-0.31-9.21-0.44-13.8-0.42L230.03,4l-38.8,6.29l-0.48,58.19
				c-4.36,1.42-8.68,3.01-12.96,4.76c-0.2,0.08-0.39,0.16-0.59,0.25c-1.17,0.48-2.33,0.97-3.49,1.48c-0.67,0.29-1.33,0.59-2,0.89
				c-0.67,0.3-1.35,0.6-2.02,0.91c-1.14,0.53-2.26,1.07-3.39,1.61c-0.2,0.1-0.41,0.19-0.61,0.29c-4.14,2.04-8.2,4.22-12.15,6.54
				l-43.84-38.27L79.25,71.79l28.68,50.63c-3.06,3.41-6.02,6.94-8.85,10.6c-0.14,0.17-0.27,0.35-0.4,0.52
				c-0.61,0.8-1.23,1.59-1.84,2.4c-0.15,0.2-0.29,0.4-0.43,0.59c-0.44,0.6-0.87,1.2-1.3,1.8c-0.43,0.59-0.86,1.19-1.28,1.78
				c-0.72,1.03-1.43,2.06-2.13,3.1c-0.1,0.15-0.2,0.29-0.3,0.44c-0.02,0.04-0.05,0.07-0.07,0.11c-2.57,3.84-4.99,7.75-7.26,11.74
				l-57.1-11.22l-13.95,36.74l50.16,29.51c-0.95,4.49-1.74,9.03-2.36,13.61c-0.01,0.04-0.01,0.08-0.02,0.12
				c-0.02,0.17-0.04,0.34-0.06,0.5c-0.17,1.25-0.33,2.5-0.47,3.76c-0.08,0.72-0.15,1.44-0.22,2.16c-0.08,0.75-0.16,1.49-0.22,2.24
				c-0.02,0.24-0.05,0.48-0.07,0.72c-0.09,1-0.15,2-0.22,3c-0.02,0.23-0.04,0.45-0.05,0.68c-0.31,4.61-0.44,9.21-0.42,13.79
				L4,269.97l6.29,38.8l58.19,0.48c1.42,4.36,3,8.68,4.75,12.96c0.08,0.2,0.17,0.41,0.25,0.61c0.48,1.16,0.96,2.31,1.47,3.47
				c0.03,0.07,0.06,0.14,0.09,0.21c0.03,0.06,0.05,0.13,0.08,0.19c0.24,0.54,0.49,1.07,0.73,1.61c0.3,0.67,0.6,1.34,0.91,2.01
				c0.53,1.14,1.07,2.27,1.62,3.4c0.1,0.2,0.19,0.4,0.29,0.59c2.04,4.15,4.22,8.2,6.54,12.16l-38.27,43.84l24.85,30.45l50.63-28.68
				c3.41,3.06,6.94,6.02,10.6,8.85C133.19,401.05,133.37,401.18,133.55,401.32z M103.17,197.61c0.37-1.03,0.77-2.04,1.16-3.05
				c0.35-0.93,0.7-1.87,1.07-2.8c0.1-0.24,0.19-0.47,0.29-0.71c9.38-22.84,24.07-43.22,42.78-59.33c0.19-0.17,0.38-0.33,0.58-0.5
				c0.84-0.71,1.69-1.39,2.55-2.08c0.77-0.63,1.53-1.26,2.31-1.88c0.2-0.16,0.4-0.31,0.6-0.47c19.54-15.1,42.45-25.4,66.72-30
				c0.25-0.05,0.5-0.1,0.75-0.14c1.07-0.19,2.15-0.35,3.22-0.53c0.98-0.16,1.97-0.33,2.96-0.48c0.25-0.04,0.51-0.07,0.76-0.1
				c24.47-3.3,49.46-0.77,72.78,7.38c0.24,0.08,0.48,0.17,0.71,0.25c1.04,0.37,2.07,0.78,3.11,1.18c0.92,0.35,1.84,0.68,2.75,1.05
				c0.24,0.1,0.47,0.19,0.71,0.29c22.86,9.38,43.24,24.08,59.36,42.8c0.15,0.18,0.31,0.36,0.46,0.54c0.71,0.84,1.4,1.71,2.1,2.57
				c0.63,0.77,1.28,1.54,1.89,2.33c0.14,0.19,0.29,0.37,0.43,0.56c15.11,19.56,25.42,42.49,30.02,66.77
				c0.05,0.24,0.09,0.48,0.14,0.72c0.18,0.98,0.32,1.97,0.48,2.95c0.18,1.08,0.37,2.16,0.52,3.25c0.03,0.24,0.07,0.49,0.1,0.73
				c3.3,24.48,0.77,49.48-7.39,72.8c-0.08,0.23-0.16,0.47-0.24,0.7c-0.35,0.96-0.72,1.91-1.08,2.87c-0.38,1.01-0.75,2.01-1.15,3.01
				c-0.09,0.23-0.19,0.45-0.28,0.68c-9.38,22.85-24.07,43.23-42.79,59.35c-0.19,0.16-0.38,0.33-0.57,0.49
				c-0.79,0.67-1.6,1.31-2.4,1.96c-0.82,0.67-1.63,1.35-2.47,2.01c-0.2,0.15-0.39,0.31-0.59,0.46c-19.55,15.1-42.46,25.4-66.73,30
				c-0.24,0.05-0.49,0.09-0.73,0.14c-1.01,0.18-2.02,0.33-3.02,0.49c-1.06,0.17-2.11,0.36-3.17,0.51c-0.25,0.03-0.5,0.07-0.74,0.1
				c-24.48,3.3-49.48,0.77-72.79-7.39c-0.24-0.08-0.47-0.16-0.71-0.25c-0.93-0.34-1.86-0.7-2.78-1.05
				c-1.03-0.39-2.07-0.77-3.09-1.18c-0.23-0.09-0.46-0.19-0.69-0.28c-22.84-9.38-43.21-24.06-59.33-42.77
				c-0.17-0.2-0.35-0.4-0.52-0.61c-0.64-0.76-1.26-1.54-1.89-2.32c-0.68-0.83-1.38-1.66-2.04-2.51c-0.16-0.21-0.33-0.42-0.49-0.63
				c-15.08-19.54-25.38-42.44-29.98-66.69c-0.05-0.25-0.1-0.5-0.14-0.75c-0.2-1.09-0.36-2.18-0.53-3.27
				c-0.16-0.97-0.33-1.94-0.47-2.91c-0.04-0.25-0.07-0.51-0.1-0.76c-3.3-24.47-0.77-49.47,7.38-72.78
				C103,198.08,103.08,197.84,103.17,197.61z"/>
		</g>
	</g>
</g>
</svg>
