<?xml version="1.0" encoding="utf-8"?>
<!-- Generator: Adobe Illustrator 25.3.1, SVG Export Plug-In . SVG Version: 6.00 Build 0)  -->
<svg version="1.1" id="Capa_1" xmlns="http://www.w3.org/2000/svg" xmlns:xlink="http://www.w3.org/1999/xlink" x="0px" y="0px"
	 viewBox="0 0 760 751.2" style="enable-background:new 0 0 760 751.2;" xml:space="preserve">
<style type="text/css">
	.st0{fill:url(#SVGID_1_);}
	.st1{fill:url(#SVGID_2_);}
	.st2{fill:url(#SVGID_3_);}
	.st3{fill:url(#SVGID_4_);}
	.st4{fill:url(#SVGID_5_);}
	.st5{fill:url(#SVGID_6_);}
	.st6{opacity:0.46;fill:#231F20;enable-background:new    ;}
	.st7{opacity:0.22;fill:#FFFFFF;enable-background:new    ;}
	.st8{fill:url(#SVGID_7_);}
	.st9{fill:url(#SVGID_8_);}
	.st10{fill:url(#SVGID_9_);}
	.st11{fill:url(#SVGID_10_);}
	.st12{fill:url(#SVGID_11_);}
	.st13{fill:url(#SVGID_12_);}
	.st14{fill:url(#SVGID_13_);}
	.st15{fill:url(#SVGID_14_);}
	.st16{fill:url(#SVGID_15_);}
	.st17{fill:url(#SVGID_16_);}
	.st18{fill:#FFFFFF;}
	.st19{fill:#FF0000;}
	.st20{fill:url(#SVGID_17_);}
	.st21{fill:url(#SVGID_18_);}
	.st22{fill:url(#SVGID_19_);}
	.st23{fill:url(#SVGID_20_);}
	.st24{fill:url(#SVGID_21_);}
	.st25{fill:url(#SVGID_22_);}
	.st26{fill:url(#SVGID_23_);}
	.st27{fill:url(#SVGID_24_);}
</style>
<g id="bg">
</g>
<g id="text">
</g>
<g id="arrow_1_">
</g>
<g id="dartBoard">
</g>
<g>
	
		<linearGradient id="SVGID_1_" gradientUnits="userSpaceOnUse" x1="1237.655" y1="-535.7365" x2="1273.2943" y2="-516.5284" gradientTransform="matrix(-0.4275 0.904 0.904 0.4275 1192.9805 -815.9546)">
		<stop  offset="0.5475" style="stop-color:#25A9E0"/>
		<stop  offset="0.8687" style="stop-color:#1B75BB"/>
	</linearGradient>
	<path class="st0" d="M212.6,144.5c0,0-24.2-74.3-61.5-57.5l7.2,23.4L212.6,144.5z"/>
	
		<linearGradient id="SVGID_2_" gradientUnits="userSpaceOnUse" x1="1263.8478" y1="-562.0158" x2="1280.6647" y2="-515.1136" gradientTransform="matrix(-0.4275 0.904 0.904 0.4275 1192.9805 -815.9546)">
		<stop  offset="0.5475" style="stop-color:#25A9E0"/>
		<stop  offset="0.8687" style="stop-color:#1B75BB"/>
	</linearGradient>
	<path class="st1" d="M209.1,142.9l2.9,2.9l0.6-1.3c0,0-30.8-69-69.9-53l-0.6,1.3l1-0.3l8,23L209.1,142.9z"/>
	
		<linearGradient id="SVGID_3_" gradientUnits="userSpaceOnUse" x1="1264.0712" y1="-524.1173" x2="1297.705" y2="-512.3918" gradientTransform="matrix(-0.4275 0.904 0.904 0.4275 1192.9805 -815.9546)">
		<stop  offset="0.5475" style="stop-color:#25A9E0"/>
		<stop  offset="0.8687" style="stop-color:#1B75BB"/>
	</linearGradient>
	<path class="st2" d="M212,145.7c0,0-30.8-69-69.9-53l8.4,23.9L212,145.7z"/>
	
		<linearGradient id="SVGID_4_" gradientUnits="userSpaceOnUse" x1="1318.0187" y1="-521.2576" x2="1284.6932" y2="-516.9377" gradientTransform="matrix(-0.4275 0.904 0.904 0.4275 1192.9805 -815.9546)">
		<stop  offset="0.5475" style="stop-color:#25A9E0"/>
		<stop  offset="0.8687" style="stop-color:#1B75BB"/>
	</linearGradient>
	<path class="st3" d="M212,145.7c0,0-72.7,19.5-85.2-20.6l23.7-8.6L212,145.7z"/>
	
		<linearGradient id="SVGID_5_" gradientUnits="userSpaceOnUse" x1="1254.243" y1="-420.8764" x2="1302.0709" y2="-421.4935" gradientTransform="matrix(-0.4275 0.904 0.904 0.4275 1192.9805 -815.9546)">
		<stop  offset="0.5475" style="stop-color:#25A9E0"/>
		<stop  offset="0.8687" style="stop-color:#1B75BB"/>
	</linearGradient>
	<path class="st4" d="M314.5,193.4l5.1-10.9l-106.8-41.9c-1.5-0.6-3.3,0.1-4,1.5l-0.6,1.1l-0.5,1c-0.7,1.6-0.2,3.4,1.4,4.3l100,55.8
		L314.5,193.4z"/>
	
		<linearGradient id="SVGID_6_" gradientUnits="userSpaceOnUse" x1="1274.5074" y1="-329.6381" x2="1301.5466" y2="-329.6381" gradientTransform="matrix(-0.4275 0.904 0.904 0.4275 1192.9805 -815.9546)">
		<stop  offset="6.424580e-02" style="stop-color:#B25800"/>
		<stop  offset="0.2318" style="stop-color:#CF8000"/>
		<stop  offset="0.4078" style="stop-color:#D38E00"/>
		<stop  offset="0.729" style="stop-color:#AA3800"/>
		<stop  offset="0.8352" style="stop-color:#AA3800"/>
		<stop  offset="1" style="stop-color:#D35600"/>
	</linearGradient>
	<path class="st5" d="M330.6,214.6l0.2,0.8c16.1,7,36.2,15.7,36.2,15.7l5.1-4.8l2.2-4.6l2.2-4.6l0.4-7c0,0-19.4-10-35.1-18l-0.8,0.3
		l-0.2-0.8c-9.6-5-17.6-9-18.2-9.3c-1.7-0.8-3,0.2-3,0.2l-5.1,10.9l-5.1,10.9c0,0,0.1,1.7,1.8,2.5c0.6,0.3,8.8,3.8,18.8,8.2
		L330.6,214.6z"/>
	<polygon class="st6" points="367.1,231 372.2,226.3 376.5,217.1 376.9,210.1 	"/>
	<polygon class="st7" points="330.9,215.4 330.6,214.6 341.1,192.4 341.9,192.2 	"/>
	<polygon class="st6" points="329.9,215 330.6,214.6 341.1,192.4 340.9,191.6 	"/>
	
		<linearGradient id="SVGID_7_" gradientUnits="userSpaceOnUse" x1="845.7798" y1="10.5581" x2="849.1666" y2="17.7549" gradientTransform="matrix(1 -2.600000e-03 -2.600000e-03 -1 -461.8889 242.5534)">
		<stop  offset="0.2095" style="stop-color:#757575"/>
		<stop  offset="0.5866" style="stop-color:#FFFFFF"/>
		<stop  offset="0.8855" style="stop-color:#383838"/>
	</linearGradient>
	<path class="st8" d="M394.9,233.8c0.8-0.7,1.5-1.8,1.7-3.4c-0.1-0.1-0.2-0.1-0.2-0.2l-21.1-10.4l-0.8,1.7l-0.8,1.7l21.1,10.4
		C394.7,233.8,394.8,233.8,394.9,233.8z"/>
</g>
<linearGradient id="SVGID_8_" gradientUnits="userSpaceOnUse" x1="638.5773" y1="791.3168" x2="781.803" y2="845.3055" gradientTransform="matrix(0.5876 -0.8091 -0.8091 -0.5876 479.3915 1518.6169)">
	<stop  offset="0" style="stop-color:#231F20;stop-opacity:0"/>
	<stop  offset="1" style="stop-color:#000000;stop-opacity:0.3"/>
</linearGradient>
<path class="st9" d="M263.6,410.8c0,0.1-0.1,0.2-0.1,0.2l-6.8,19.4l-2.1-1l-5-0.1c0,0-6.8,16.9-12,29.9l0.2,0.6l-0.6,0.2
	c-3.1,7.8-5.6,14-5.8,14.5c-0.5,1.3,0.2,2.2,0.2,2.2l5.6,2.6l-5.6-2.6l-21.8,73c-0.1,0.4-0.1,0.7,0,1c-8.8,3.9-38,18.6-27,35.3
	l1.2-0.4c0.4,1.5,1,3,1.9,4.6l0.7,0.2l12.9-5.1l6.1,11.8c18.5-6.6,11-35.9,8.2-44.7c0.4-0.2,0.7-0.5,1-1l31.9-68l-7-3.2l7,3.2
	c0,0,1.1-0.2,1.6-1.4c0.2-0.5,2.5-6.7,5.3-14.5l-0.2-0.6l0.6-0.2c4.7-13,10.9-29.9,10.9-29.9l0,0l-3.4-4.2l-2.1-1l7-19.3
	c0-0.1,0-0.1,0.1-0.2C265.6,411.5,264.7,410.9,263.6,410.8z"/>
<g>
	
		<linearGradient id="SVGID_9_" gradientUnits="userSpaceOnUse" x1="1326.2848" y1="-562.6463" x2="1356.6758" y2="-546.2668" gradientTransform="matrix(-0.1605 0.987 0.987 0.1605 818.4723 -884.8884)">
		<stop  offset="0.5475" style="stop-color:#25A9E0"/>
		<stop  offset="0.8687" style="stop-color:#1B75BB"/>
	</linearGradient>
	<path class="st10" d="M94,384c0,0-37.5-55.1-63.9-32.6l11.4,17.4L94,384z"/>
	
		<linearGradient id="SVGID_10_" gradientUnits="userSpaceOnUse" x1="1348.584" y1="-585.0573" x2="1362.9243" y2="-545.0621" gradientTransform="matrix(-0.1605 0.987 0.987 0.1605 818.4723 -884.8884)">
		<stop  offset="0.5475" style="stop-color:#25A9E0"/>
		<stop  offset="0.8687" style="stop-color:#1B75BB"/>
	</linearGradient>
	<path class="st11" d="M90.8,383.4l3,1.7l0.2-1.2c0,0-41.5-49.3-69.8-26.9l-0.2,1.2l0.7-0.5l12,16.9L90.8,383.4z"/>
	
		<linearGradient id="SVGID_11_" gradientUnits="userSpaceOnUse" x1="1348.8125" y1="-552.733" x2="1377.493" y2="-542.7343" gradientTransform="matrix(-0.1605 0.987 0.987 0.1605 818.4723 -884.8884)">
		<stop  offset="0.5475" style="stop-color:#25A9E0"/>
		<stop  offset="0.8687" style="stop-color:#1B75BB"/>
	</linearGradient>
	<path class="st12" d="M93.8,385.1c0,0-41.5-49.3-69.8-26.9l12.5,17.6L93.8,385.1z"/>
	
		<linearGradient id="SVGID_12_" gradientUnits="userSpaceOnUse" x1="1394.8264" y1="-550.2945" x2="1366.4089" y2="-546.6108" gradientTransform="matrix(-0.1605 0.987 0.987 0.1605 818.4723 -884.8884)">
		<stop  offset="0.5475" style="stop-color:#25A9E0"/>
		<stop  offset="0.8687" style="stop-color:#1B75BB"/>
	</linearGradient>
	<path class="st13" d="M93.8,385.1c0,0-55,33.1-74.7,3.3l17.4-12.6L93.8,385.1z"/>
	
		<linearGradient id="SVGID_13_" gradientUnits="userSpaceOnUse" x1="1340.4406" y1="-464.6717" x2="1381.2249" y2="-465.198" gradientTransform="matrix(-0.1605 0.987 0.987 0.1605 818.4723 -884.8884)">
		<stop  offset="0.5475" style="stop-color:#25A9E0"/>
		<stop  offset="0.8687" style="stop-color:#1B75BB"/>
	</linearGradient>
	<path class="st14" d="M189,400l1.7-10.2l-97.4-9.1c-1.4-0.2-2.6,0.8-2.9,2.2l-0.2,1l-0.2,0.9c-0.2,1.4,0.7,2.9,2.2,3.2l95.1,22.2
		L189,400z"/>
	
		<linearGradient id="SVGID_14_" gradientUnits="userSpaceOnUse" x1="1357.7361" y1="-386.726" x2="1380.7795" y2="-386.726" gradientTransform="matrix(-0.1605 0.987 0.987 0.1605 818.4723 -884.8884)">
		<stop  offset="6.424580e-02" style="stop-color:#B25800"/>
		<stop  offset="0.2318" style="stop-color:#CF8000"/>
		<stop  offset="0.4078" style="stop-color:#D38E00"/>
		<stop  offset="0.729" style="stop-color:#AA3800"/>
		<stop  offset="0.8352" style="stop-color:#AA3800"/>
		<stop  offset="1" style="stop-color:#D35600"/>
	</linearGradient>
	<path class="st15" d="M207.3,413.5l0.4,0.6c14.9,1.9,33.4,4.3,33.4,4.3l3.1-5.1l0.7-4.3l0.7-4.3l-1.3-5.8c0,0-18.3-3.6-33-6.5
		l-0.6,0.4l-0.4-0.6c-9-1.8-16.6-3.2-17.1-3.4c-1.5-0.2-2.4,0.9-2.4,0.9l-1.7,10.2l-1.7,10.2c0,0,0.5,1.4,2,1.6
		c0.6,0.1,8.2,1.1,17.3,2.3L207.3,413.5z"/>
	<polygon class="st6" points="241,418.4 244.1,413.3 245.4,404.7 244.2,398.9 	"/>
	<polygon class="st7" points="207.7,414.1 207.3,413.5 210.6,392.9 211.2,392.5 	"/>
	<polygon class="st6" points="206.7,414 207.3,413.5 210.6,392.9 210.2,392.2 	"/>
	
		<linearGradient id="SVGID_15_" gradientUnits="userSpaceOnUse" x1="754.2281" y1="-34.2372" x2="757.115" y2="-28.1024" gradientTransform="matrix(0.9602 -0.2793 -0.2793 -0.9602 -479.2777 591.187)">
		<stop  offset="0.2095" style="stop-color:#757575"/>
		<stop  offset="0.5866" style="stop-color:#FFFFFF"/>
		<stop  offset="0.8855" style="stop-color:#383838"/>
	</linearGradient>
	<path class="st16" d="M264.4,414.2c0.5-0.8,0.8-1.8,0.6-3.1c-0.1,0-0.2,0-0.2-0.1l-19.8-3.5l-0.2,1.6l-0.2,1.6L264.4,414.2
		C264.3,414.2,264.3,414.2,264.4,414.2z"/>
</g>
<linearGradient id="SVGID_16_" gradientUnits="userSpaceOnUse" x1="985.2722" y1="117.0718" x2="1201.504" y2="436.0143" gradientTransform="matrix(0.4206 -0.9072 -0.9072 -0.4206 295.0228 1488.3997)">
	<stop  offset="0.2095" style="stop-color:#890000"/>
	<stop  offset="0.6788" style="stop-color:#C60000"/>
	<stop  offset="0.8911" style="stop-color:#890000"/>
</linearGradient>
<path class="st17" d="M666.2,25.4l0.4,0.7c-8.8-3-18.7-4.2-29.5-3.6c-88.8,5.3-218.5,140.1-301.5,301.1s-108.8,328-49,379.1
	c5.4,4.6,11.3,8.2,17.6,10.7l0,0l0.2,0.1c1,0.4,2,0.8,3,1.1l25.8,9.6l0,0c78.4,31.3,226.3-89.4,333.2-296.7
	C769.3,227.5,772.8,65.7,697,37.4l0,0L666.2,25.4z"/>
<g>
	<path class="st18" d="M624.2,412.7c-107,207.7-258.7,323.2-326.4,268.2c-57.1-46.5-33.7-202.7,44.7-355.1S542.9,47.5,625.7,44.3
		C723.9,40.4,731.1,205,624.2,412.7z"/>
	<path class="st19" d="M286.6,702.7c-59.8-51.1-34-218,49-379.1S548.1,27.7,636.9,22.4c106.5-6.3,116.1,170.1,0.6,394.4
		S358.2,764,286.6,702.7z M614.5,66.1C537.9,67.6,423.4,184.9,349.7,328s-94.9,289.1-40.7,331C372.7,708,513,599.3,611.2,408.6
		S704.2,64.4,614.5,66.1z"/>
</g>
<g>
	<path class="st18" d="M570.8,396.2c-71.9,139.4-175.3,223.4-225,191.4c-44.1-28.3-29.5-140.1,28.3-252.2s146.5-200.9,203.6-198
		C642.2,140.8,642.6,256.8,570.8,396.2z"/>
	<path class="st19" d="M334.6,609.5c-47.4-32.3-30.8-154.7,31.9-276.3s159.5-219.3,222.5-217.5c71.9,2.1,73.5,129.7-6.1,284.3
		C503.2,554.5,388.5,646.3,334.6,609.5z M566.4,159.3c-51.3-3.8-132,76.5-184.6,178.5s-65.3,203.3-24.7,227.9
		c45.2,27.4,138-49,202-173.2C623.1,268.3,623.6,163.5,566.4,159.3z"/>
</g>
<g>
	<path class="st18" d="M521.3,380.9c-39.2,76.1-96.6,125.3-126.1,110.9c-27.6-13.5-20.6-78.3,14-145.5
		c34.7-67.2,87.2-118,119.2-113.1C562.7,238.6,560.5,304.8,521.3,380.9z"/>
	<path class="st19" d="M383.9,513.7c-31.6-16.6-23-92.3,17-169.9c40-77.7,101.1-137.2,138.7-132.4c40.7,5.3,38.9,83-7.4,172.9
		S418.2,531.6,383.9,513.7z M517.1,255.1c-26.4-4.7-70.4,37.5-99.5,93.8c-29,56.3-34.6,110.4-11.2,121
		c24.7,11.3,72.1-29.9,104.3-92.4C542.8,315.2,545.1,260.1,517.1,255.1z"/>
</g>
<g>
	<path class="st19" d="M486.3,370.1c-16.1,31.3-39.9,52.6-52.9,47.6c-12.6-4.8-10.1-32.7,5.2-62.3c15.3-29.7,38.3-51.2,51.6-48
		C503.9,310.7,502.3,338.8,486.3,370.1z"/>
</g>
<linearGradient id="SVGID_17_" gradientUnits="userSpaceOnUse" x1="602.7141" y1="518.3425" x2="786.9958" y2="587.807" gradientTransform="matrix(0.5739 -0.8189 -0.8189 -0.5739 477.3719 1318.2484)">
	<stop  offset="0" style="stop-color:#231F20;stop-opacity:0"/>
	<stop  offset="1" style="stop-color:#000000;stop-opacity:0.6"/>
</linearGradient>
<path class="st20" d="M459.5,363.8c0,0.1-0.1,0.2-0.1,0.3l-8.4,25.1l-2.7-1.3h-6.5c0,0-8.3,21.8-14.7,38.7l0.3,0.8l-0.7,0.3
	c-3.8,10-6.9,18.2-7.1,18.8c-0.6,1.7,0.4,2.9,0.4,2.9l7.3,3.1l-7.3-3.1l-26.6,94.4c-0.2,0.5-0.1,1,0,1.4
	c-11.3,5.3-48.5,24.7-34,45.9l1.5-0.6c0.6,2,1.4,3.9,2.6,5.9l1,0.3l16.4-6.9l8.1,15c23.7-8.9,13.3-46.3,9.5-57.7
	c0.6-0.2,1-0.6,1.2-1.2l39.5-88.2l-9.1-3.9l9.1,3.9c0,0,1.4-0.2,2-1.8c0.2-0.6,3-8.7,6.5-18.8l-0.3-0.7l0.7-0.3
	c5.8-16.9,13.4-38.7,13.4-38.7l0,0l-4.5-5.3l-2.7-1.3l8.5-25c0-0.1,0.1-0.1,0.1-0.2C462.1,364.8,461,364,459.5,363.8z"/>
<g>
	
		<linearGradient id="SVGID_18_" gradientUnits="userSpaceOnUse" x1="1072.7075" y1="-497.0164" x2="1118.0256" y2="-472.5918" gradientTransform="matrix(-0.1273 0.9919 0.9919 0.1273 767.8922 -745.2215)">
		<stop  offset="0.5475" style="stop-color:#DC0000"/>
		<stop  offset="0.8855" style="stop-color:#7C0000"/>
	</linearGradient>
	<path class="st21" d="M206,328c0,0-58.6-80.3-97-45.3l17.9,25.4L206,328z"/>
	
		<linearGradient id="SVGID_19_" gradientUnits="userSpaceOnUse" x1="1106.0587" y1="-530.4269" x2="1127.4424" y2="-470.7881" gradientTransform="matrix(-0.1273 0.9919 0.9919 0.1273 767.8922 -745.2215)">
		<stop  offset="0.5475" style="stop-color:#FF2400"/>
		<stop  offset="0.8855" style="stop-color:#B20000"/>
	</linearGradient>
	<path class="st22" d="M201.3,327.4l4.6,2.4l0.2-1.8c0,0-64.4-71.4-105.4-36.7l-0.2,1.8l1-0.7l18.7,24.6L201.3,327.4z"/>
	
		<linearGradient id="SVGID_20_" gradientUnits="userSpaceOnUse" x1="1106.2762" y1="-482.195" x2="1149.0442" y2="-467.285" gradientTransform="matrix(-0.1273 0.9919 0.9919 0.1273 767.8922 -745.2215)">
		<stop  offset="0.5475" style="stop-color:#FF0000"/>
		<stop  offset="0.8855" style="stop-color:#B20000"/>
	</linearGradient>
	<path class="st23" d="M205.8,329.7c0,0-64.4-71.4-105.4-36.7l19.5,25.6L205.8,329.7z"/>
	
		<linearGradient id="SVGID_21_" gradientUnits="userSpaceOnUse" x1="1174.8832" y1="-478.5584" x2="1132.5093" y2="-473.0655" gradientTransform="matrix(-0.1273 0.9919 0.9919 0.1273 767.8922 -745.2215)">
		<stop  offset="0.5475" style="stop-color:#DC0000"/>
		<stop  offset="0.8855" style="stop-color:#B20000"/>
	</linearGradient>
	<path class="st24" d="M205.8,329.7c0,0-80.3,52.2-111.2,8.6l25.3-19.6L205.8,329.7z"/>
	
		<linearGradient id="SVGID_22_" gradientUnits="userSpaceOnUse" x1="1093.7899" y1="-350.9324" x2="1154.6056" y2="-351.7171" gradientTransform="matrix(-0.1273 0.9919 0.9919 0.1273 767.8922 -745.2215)">
		<stop  offset="0.5475" style="stop-color:#FF0000"/>
		<stop  offset="0.8855" style="stop-color:#940000"/>
	</linearGradient>
	<path class="st25" d="M348.5,347.1l1.9-15.2l-145.6-8.8c-2.1-0.2-3.9,1.4-4.2,3.4l-0.2,1.5l-0.2,1.4c-0.3,2.2,1.2,4.2,3.4,4.6
		l142.9,28.3L348.5,347.1z"/>
	
		<linearGradient id="SVGID_23_" gradientUnits="userSpaceOnUse" x1="1119.5811" y1="-234.7384" x2="1153.9479" y2="-234.7384" gradientTransform="matrix(-0.1273 0.9919 0.9919 0.1273 767.8922 -745.2215)">
		<stop  offset="6.424580e-02" style="stop-color:#B25800"/>
		<stop  offset="0.2318" style="stop-color:#CF8000"/>
		<stop  offset="0.4078" style="stop-color:#D38E00"/>
		<stop  offset="0.729" style="stop-color:#AA3800"/>
		<stop  offset="0.8352" style="stop-color:#AA3800"/>
		<stop  offset="1" style="stop-color:#D35600"/>
	</linearGradient>
	<path class="st26" d="M376.4,366.4l0.6,0.9c22.2,2.2,49.9,4.8,49.9,4.8l4.3-7.8l0.8-6.4l0.8-6.4l-2.2-8.6c0,0-27.4-4.4-49.5-8
		l-0.8,0.6l-0.6-0.9c-13.6-2.2-24.8-4-25.7-4.1c-2.3-0.3-3.5,1.4-3.5,1.4l-1.9,15.2l-1.9,15.2c0,0,0.7,2,3,2.2
		c0.9,0.1,12.2,1.2,25.9,2.6L376.4,366.4z"/>
	<polygon class="st6" points="426.9,372 431.2,364.2 432.9,351.4 430.6,342.8 	"/>
	<polygon class="st7" points="376.9,367.3 376.4,366.4 380.3,335.5 381.1,334.8 	"/>
	<polygon class="st6" points="375.6,367.1 376.4,366.4 380.3,335.5 379.7,334.5 	"/>
	
		<linearGradient id="SVGID_24_" gradientUnits="userSpaceOnUse" x1="1006.4753" y1="100.1982" x2="1010.7816" y2="109.3492" gradientTransform="matrix(0.9503 -0.3114 -0.3114 -0.9503 -478.5797 772.4877)">
		<stop  offset="0.2095" style="stop-color:#757575"/>
		<stop  offset="0.5866" style="stop-color:#FFFFFF"/>
		<stop  offset="0.8855" style="stop-color:#383838"/>
	</linearGradient>
	<path class="st27" d="M461.5,364.5c0.7-1.2,1.1-2.8,0.7-4.7c-0.1,0-0.2,0-0.3-0.1l-29.6-4.3l-0.3,2.4l-0.3,2.4l29.6,4.3
		C461.4,364.5,461.5,364.5,461.5,364.5z"/>
</g>
</svg>
