<?xml version="1.0" encoding="utf-8"?>
<!-- Generator: Adobe Illustrator 25.3.1, SVG Export Plug-In . SVG Version: 6.00 Build 0)  -->
<svg version="1.1" id="Layer_1" xmlns="http://www.w3.org/2000/svg" xmlns:xlink="http://www.w3.org/1999/xlink" x="0px" y="0px"
	 viewBox="0 0 477.1 42" style="enable-background:new 0 0 477.1 42;" xml:space="preserve">
<style type="text/css">
	.st0{fill:#FFFFFF;}
</style>
<g>
	<path class="st0" d="M387.3,35.2c-3.5,3.5-8.5,5.8-13.9,5.8c-10.8,0-19.7-8.8-19.7-19.7c0-10.8,8.8-19.7,19.7-19.7
		c5.3,0,10.4,2.1,13.9,5.7l-6.8,6.9c-1.8-1.8-4.3-2.9-7-2.9c-5.5,0-9.9,4.4-9.9,9.9s4.4,9.9,9.9,9.9c2.7,0,5.2-1.1,7-2.9L387.3,35.2
		z"/>
	<path class="st0" d="M375.6,15.6c4.8,0,5.4,4,10.4,4c1.5,0,2.7-1.5,4-2.3c0,0.7-0.9,9.2-6.4,9.3c-5.6,0-6.9-4.2-11.5-4.2
		c-2.4,0-2.5,1.4-3.6,2.4C369.2,21.3,369.8,15.6,375.6,15.6z"/>
	<path class="st0" d="M402.6,17.3c-0.7,0.2-1.5,0.3-2.2,0.3c-3.2,0-5.3-1.6-5.3-4.9c0-3.4,2.1-5.2,5.3-5.2c0.7,0,1.5,0.1,2.2,0.4
		l-0.1,1.7c-0.7-0.4-1.4-0.6-2.1-0.6c-2.1,0-3.3,1.6-3.3,3.5s1.2,3.5,3.4,3.5c0.7,0,1.7-0.2,2.1-0.4V17.3z"/>
	<path class="st0" d="M407.1,10.1c2.1,0,3.7,1.4,3.7,3.8c0,2.1-1.4,3.7-3.7,3.7c-2.3,0-3.7-1.7-3.7-3.7
		C403.4,11.5,405.1,10.1,407.1,10.1z M407.1,16.2c1.4,0,1.8-1.3,1.8-2.5c0-1.1-0.6-2.1-1.8-2.1c-1.2,0-1.8,1-1.8,2.1
		C405.4,14.9,405.7,16.2,407.1,16.2z"/>
	<path class="st0" d="M415.7,10.1c2.1,0,3.7,1.4,3.7,3.8c0,2.1-1.4,3.7-3.7,3.7c-2.3,0-3.7-1.7-3.7-3.7
		C412,11.5,413.6,10.1,415.7,10.1z M415.7,16.2c1.4,0,1.8-1.3,1.8-2.5c0-1.1-0.6-2.1-1.8-2.1c-1.2,0-1.8,1-1.8,2.1
		C414,14.9,414.3,16.2,415.7,16.2z"/>
	<path class="st0" d="M421,10.3h1.8v1l0,0c0.4-0.7,1.1-1.2,2.2-1.2c2.2,0,3,1.8,3,3.7s-0.8,3.8-3.1,3.8c-0.8,0-1.5-0.2-2.1-1l0,0
		v3.7h-1.9L421,10.3L421,10.3z M422.8,13.9c0,1,0.4,2.3,1.7,2.3c1.2,0,1.6-1.3,1.6-2.3c0-0.9-0.4-2.3-1.6-2.3
		C423.3,11.6,422.8,12.9,422.8,13.9z"/>
	<path class="st0" d="M435.3,17.2c-0.7,0.4-1.5,0.6-2.4,0.6c-2.3,0-3.7-1.4-3.7-3.7c0-2.1,1.1-3.8,3.4-3.8c2.7,0,3.5,1.9,3.5,4.4h-5
		c0.1,1.1,0.9,1.8,2.1,1.8c0.9,0,1.7-0.4,2.4-0.7v1.6H435.3z M434,13.2c-0.1-0.9-0.5-1.7-1.5-1.7s-1.6,0.7-1.7,1.7H434z"/>
	<path class="st0" d="M437.3,10.3h1.7V12l0,0c0.1-0.7,0.8-1.8,2-1.8c0.2,0,0.4,0,0.6,0.1v1.9c-0.2-0.1-0.5-0.2-0.8-0.2
		c-1.5,0-1.5,1.9-1.5,2.9v2.6h-1.9V10.3z"/>
	<path class="st0" d="M443.1,10.7c0.7-0.4,1.7-0.6,2.5-0.6c2.2,0,3.1,0.9,3.1,3v0.9c0,0.7,0,1.3,0,1.8c0,0.6,0,1,0.1,1.6h-1.7
		c-0.1-0.4-0.1-0.8-0.1-1.1l0,0c-0.5,0.8-1.4,1.2-2.2,1.2c-1.3,0-2.5-0.7-2.5-2.1c0-1,0.6-1.7,1.2-2.1c0.7-0.4,1.7-0.5,2.4-0.5h1
		c0-1.1-0.6-1.6-1.6-1.6c-0.8,0-1.6,0.3-2.2,0.7V10.7z M445.2,16.3c0.6,0,1-0.3,1.3-0.7s0.4-0.9,0.4-1.5h-0.8
		c-0.8,0-2.1,0.1-2.1,1.2C444,16,444.6,16.3,445.2,16.3z"/>
	<path class="st0" d="M455.2,11.8c-0.4-0.2-0.7-0.3-1.3-0.3c-1.1,0-1.9,0.9-1.9,2.2s0.7,2.3,2,2.3c0.6,0,1.1-0.2,1.4-0.4l0.1,1.6
		c-0.6,0.2-1.1,0.3-1.9,0.3c-2.3,0-3.5-1.6-3.5-3.8c0-2.1,1.2-3.7,3.5-3.7c0.7,0,1.3,0.1,1.8,0.3L455.2,11.8z"/>
	<path class="st0" d="M456.7,7.2h1.9V9h-1.9V7.2z M456.7,10.3h1.9v7.2h-1.9V10.3z"/>
	<path class="st0" d="M463.9,10.1c2.1,0,3.7,1.4,3.7,3.8c0,2.1-1.4,3.7-3.7,3.7c-2.3,0-3.7-1.7-3.7-3.7
		C460.2,11.5,461.8,10.1,463.9,10.1z M463.9,16.2c1.4,0,1.8-1.3,1.8-2.5c0-1.1-0.6-2.1-1.8-2.1c-1.2,0-1.8,1-1.8,2.1
		C462.2,14.9,462.5,16.2,463.9,16.2z M464,7.2h2l-2,2.1h-1.1L464,7.2z"/>
	<path class="st0" d="M469.2,10.3h1.8v0.9l0,0c0.6-0.8,1.4-1.1,2.3-1.1c1.7,0,2.4,1.2,2.4,2.8v4.6h-1.9v-3.8c0-0.8,0-2.1-1.2-2.1
		c-1.4,0-1.7,1.5-1.7,2.4v3.5h-1.9L469.2,10.3L469.2,10.3z"/>
	<polygon class="st0" points="395,22.7 400.8,22.7 400.8,24.2 397,24.2 397,26.6 400.4,26.6 400.4,28.1 397,28.1 397,30.9 
		400.8,30.9 400.8,32.4 395,32.4 	"/>
	<path class="st0" d="M406.9,26.7c-0.6-0.2-1-0.3-1.7-0.3c-0.5,0-1.1,0.2-1.1,0.8c0,1.1,3.3,0.4,3.3,3c0,1.7-1.5,2.3-3,2.3
		c-0.7,0-1.4-0.1-2.1-0.3l0.1-1.5c0.6,0.3,1.2,0.5,1.9,0.5c0.5,0,1.2-0.2,1.2-0.8c0-1.4-3.3-0.5-3.3-3.1c0-1.6,1.4-2.2,2.8-2.2
		c0.8,0,1.5,0.1,2.1,0.3L406.9,26.7z"/>
	<path class="st0" d="M408.8,25.2h1.8v1l0,0c0.5-0.7,1.1-1.2,2.2-1.2c2.2,0,3,1.8,3,3.7s-0.8,3.8-3.1,3.8c-0.8,0-1.5-0.2-2.1-1l0,0
		v3.7h-1.9L408.8,25.2L408.8,25.2z M410.7,28.8c0,1,0.4,2.3,1.7,2.3c1.2,0,1.6-1.3,1.6-2.3c0-0.9-0.4-2.3-1.6-2.3
		C411.2,26.5,410.7,27.8,410.7,28.8z"/>
	<path class="st0" d="M417.7,25.6c0.7-0.4,1.7-0.6,2.5-0.6c2.2,0,3.1,0.9,3.1,3v0.9c0,0.7,0,1.3,0,1.8c0,0.6,0,1,0.1,1.6h-1.7
		c-0.1-0.4-0.1-0.8-0.1-1.1l0,0c-0.5,0.8-1.4,1.2-2.2,1.2c-1.3,0-2.5-0.7-2.5-2.1c0-1,0.6-1.7,1.2-2.1c0.7-0.4,1.7-0.5,2.4-0.5h1
		c0-1.1-0.6-1.6-1.6-1.6c-0.8,0-1.6,0.3-2.2,0.7V25.6z M419.9,31.2c0.6,0,1-0.3,1.3-0.7c0.3-0.4,0.4-0.9,0.4-1.5h-0.8
		c-0.8,0-2.1,0.1-2.1,1.2C418.7,31,419.3,31.2,419.9,31.2z"/>
	<path class="st0" d="M425.2,25.2h1.8v0.9l0,0c0.6-0.8,1.4-1.1,2.3-1.1c1.7,0,2.4,1.2,2.4,2.8v4.6h-1.9v-3.8c0-0.8,0-2.1-1.2-2.1
		c-1.4,0-1.7,1.5-1.7,2.4v3.5h-1.9L425.2,25.2C425.1,25.2,425.2,25.2,425.2,25.2z M426,24c0-0.8,0.6-1.7,1.4-1.7
		c0.4,0,0.7,0.2,1.1,0.3c0.4,0.2,0.7,0.3,1,0.3c0.5,0,0.7-0.3,0.7-0.7h0.7c0,0.9-0.5,1.7-1.4,1.7c-0.6,0-0.8-0.1-1.2-0.3
		c-0.4-0.1-0.7-0.3-0.9-0.3c-0.5,0-0.7,0.4-0.7,0.7H426z"/>
	<path class="st0" d="M437,25c2.1,0,3.7,1.4,3.7,3.8c0,2.1-1.4,3.7-3.7,3.7s-3.7-1.7-3.7-3.7C433.3,26.5,434.9,25,437,25z M437,31.2
		c1.4,0,1.8-1.3,1.8-2.5c0-1.1-0.6-2.1-1.8-2.1s-1.8,1-1.8,2.1C435.3,29.9,435.6,31.2,437,31.2z"/>
	<rect x="442.4" y="21.9" class="st0" width="1.9" height="10.5"/>
	<path class="st0" d="M446.5,25.6c0.7-0.4,1.7-0.6,2.5-0.6c2.1,0,3.1,0.9,3.1,3v0.9c0,0.7,0,1.3,0,1.8c0,0.6,0,1,0.1,1.6h-1.7
		c-0.1-0.4-0.1-0.8-0.1-1.1l0,0c-0.5,0.8-1.4,1.2-2.2,1.2c-1.3,0-2.5-0.7-2.5-2.1c0-1,0.6-1.7,1.2-2.1c0.7-0.4,1.7-0.5,2.4-0.5h1
		c0-1.1-0.6-1.6-1.6-1.6c-0.8,0-1.6,0.3-2.2,0.7V25.6z M448.7,31.2c0.6,0,1-0.3,1.3-0.7c0.3-0.4,0.4-0.9,0.4-1.5h-0.8
		c-0.8,0-2.1,0.1-2.1,1.2C447.5,31,448,31.2,448.7,31.2z"/>
</g>
<g>
	<path class="st0" d="M5,21v2h5v3H5v3.8H1V18h9.7v3H5z"/>
	<path class="st0" d="M19.6,27.9h-4.5l-0.8,2.1h-4.1L15.4,18h3.9l5.2,11.9h-4.2L19.6,27.9z M18.5,25l-1.2-3l-1.2,3H18.5z"/>
	<path class="st0" d="M27.9,29.4c-1-0.5-1.8-1.3-2.4-2.2c-0.6-0.9-0.9-2-0.9-3.2s0.3-2.3,0.9-3.2c0.6-0.9,1.4-1.7,2.4-2.2
		s2.2-0.8,3.5-0.8s2.4,0.3,3.5,0.8c1,0.5,1.8,1.3,2.4,2.2c0.6,0.9,0.9,2,0.9,3.2s-0.3,2.3-0.9,3.2c-0.6,0.9-1.4,1.7-2.4,2.2
		c-1,0.5-2.2,0.8-3.5,0.8S28.9,29.9,27.9,29.4z M32.7,26.6c0.4-0.2,0.7-0.6,1-1s0.4-1,0.4-1.6s-0.1-1.1-0.4-1.6s-0.6-0.8-1-1
		c-0.4-0.2-0.9-0.4-1.4-0.4s-1,0.1-1.4,0.4c-0.4,0.2-0.7,0.6-1,1s-0.4,1-0.4,1.6s0.1,1.1,0.4,1.6s0.6,0.8,1,1
		c0.4,0.2,0.9,0.4,1.4,0.4S32.3,26.8,32.7,26.6z"/>
	<path class="st0" d="M42.5,29.2c-0.9-0.5-1.7-1.2-2.2-2.2c-0.5-0.9-0.8-2-0.8-3.1s0.3-2.2,0.8-3.1c0.5-0.9,1.3-1.6,2.2-2.2
		s2-0.8,3.2-0.8c0.9,0,1.7,0.1,2.4,0.4c0.7,0.3,1.3,0.7,1.9,1.2l-0.5,0.6c-1-0.9-2.2-1.4-3.7-1.4c-1,0-1.9,0.2-2.7,0.7
		c-0.8,0.5-1.5,1.1-1.9,1.9c-0.5,0.8-0.7,1.7-0.7,2.7c0,1,0.2,1.9,0.7,2.7s1.1,1.4,1.9,1.9c0.8,0.5,1.7,0.7,2.7,0.7
		c1.5,0,2.7-0.5,3.7-1.4l0.5,0.6c-0.5,0.5-1.1,1-1.9,1.2c-0.7,0.3-1.5,0.4-2.4,0.4C44.5,30,43.4,29.8,42.5,29.2z"/>
	<path class="st0" d="M57.9,21.8c0.6,0.6,0.9,1.4,0.9,2.5v5.6H58v-1.6c-0.3,0.5-0.7,0.9-1.2,1.2c-0.5,0.3-1.2,0.4-2,0.4
		c-1,0-1.8-0.2-2.3-0.7c-0.6-0.5-0.9-1.1-0.9-1.8c0-0.7,0.3-1.3,0.8-1.8c0.5-0.5,1.4-0.7,2.5-0.7h3v-0.7c0-0.8-0.2-1.5-0.7-1.9
		c-0.4-0.4-1.1-0.6-2-0.6c-0.6,0-1.2,0.1-1.7,0.3c-0.5,0.2-1,0.5-1.4,0.8l-0.4-0.6c0.4-0.4,1-0.7,1.6-0.9c0.6-0.2,1.3-0.3,2-0.3
		C56.5,21,57.3,21.3,57.9,21.8z M56.8,28.8c0.5-0.3,0.9-0.8,1.2-1.5v-1.7h-3c-0.9,0-1.5,0.2-1.9,0.5c-0.4,0.3-0.6,0.8-0.6,1.3
		c0,0.6,0.2,1,0.6,1.4c0.4,0.3,1,0.5,1.8,0.5C55.6,29.3,56.3,29.1,56.8,28.8z"/>
	<path class="st0" d="M69,21.6c0.7,0.4,1.2,0.9,1.6,1.6c0.4,0.7,0.6,1.5,0.6,2.3c0,0.9-0.2,1.7-0.6,2.3c-0.4,0.7-0.9,1.2-1.6,1.6
		c-0.7,0.4-1.4,0.6-2.2,0.6c-0.8,0-1.5-0.2-2.1-0.6c-0.6-0.4-1.1-0.9-1.5-1.5v5.3h-0.9V21h0.8v2.1c0.4-0.7,0.8-1.2,1.5-1.6
		c0.6-0.4,1.4-0.6,2.2-0.6C67.6,21,68.3,21.2,69,21.6z M68.5,28.8c0.5-0.3,1-0.8,1.3-1.3c0.3-0.6,0.5-1.2,0.5-1.9
		c0-0.7-0.2-1.4-0.5-1.9c-0.3-0.6-0.7-1-1.3-1.3c-0.5-0.3-1.2-0.5-1.8-0.5s-1.3,0.2-1.8,0.5c-0.5,0.3-1,0.8-1.3,1.3
		c-0.3,0.6-0.5,1.2-0.5,1.9c0,0.7,0.2,1.4,0.5,1.9c0.3,0.6,0.7,1,1.3,1.3c0.5,0.3,1.1,0.5,1.8,0.5S68,29.1,68.5,28.8z"/>
	<path class="st0" d="M79.3,21.8c0.6,0.6,0.9,1.4,0.9,2.5v5.6h-0.8v-1.6c-0.3,0.5-0.7,0.9-1.2,1.2c-0.5,0.3-1.2,0.4-2,0.4
		c-1,0-1.8-0.2-2.3-0.7c-0.6-0.5-0.9-1.1-0.9-1.8c0-0.7,0.3-1.3,0.8-1.8c0.5-0.5,1.4-0.7,2.5-0.7h3v-0.7c0-0.8-0.2-1.5-0.7-1.9
		c-0.4-0.4-1.1-0.6-2-0.6c-0.6,0-1.2,0.1-1.7,0.3c-0.5,0.2-1,0.5-1.4,0.8l-0.4-0.6c0.4-0.4,1-0.7,1.6-0.9c0.6-0.2,1.3-0.3,2-0.3
		C77.8,21,78.7,21.3,79.3,21.8z M78.1,28.8c0.5-0.3,0.9-0.8,1.2-1.5v-1.7h-3c-0.9,0-1.5,0.2-1.9,0.5c-0.4,0.3-0.6,0.8-0.6,1.3
		c0,0.6,0.2,1,0.6,1.4c0.4,0.3,1,0.5,1.8,0.5C77,29.3,77.6,29.1,78.1,28.8z"/>
	<path class="st0" d="M84.9,29.4c-0.7-0.4-1.2-0.9-1.6-1.6s-0.6-1.5-0.6-2.3c0-0.9,0.2-1.7,0.6-2.3s0.9-1.2,1.6-1.6s1.5-0.6,2.3-0.6
		c0.7,0,1.4,0.1,1.9,0.4c0.6,0.3,1.1,0.7,1.4,1.2l-0.6,0.5c-0.3-0.4-0.7-0.8-1.2-1c-0.5-0.2-1-0.3-1.6-0.3c-0.7,0-1.3,0.2-1.9,0.5
		c-0.6,0.3-1,0.8-1.3,1.3c-0.3,0.6-0.5,1.2-0.5,2s0.2,1.4,0.5,2c0.3,0.6,0.7,1,1.3,1.3c0.5,0.3,1.2,0.5,1.9,0.5
		c0.6,0,1.1-0.1,1.6-0.3c0.5-0.2,0.9-0.6,1.2-1l0.6,0.5c-0.4,0.5-0.8,0.9-1.4,1.2c-0.6,0.3-1.2,0.4-1.9,0.4
		C86.3,30,85.6,29.8,84.9,29.4z"/>
	<path class="st0" d="M93.1,18.7c-0.1-0.1-0.2-0.3-0.2-0.5c0-0.2,0.1-0.4,0.2-0.5c0.1-0.1,0.3-0.2,0.5-0.2c0.2,0,0.4,0.1,0.5,0.2
		c0.1,0.1,0.2,0.3,0.2,0.5c0,0.2-0.1,0.4-0.2,0.5c-0.1,0.1-0.3,0.2-0.5,0.2C93.4,18.9,93.2,18.8,93.1,18.7z M93.1,21H94v8.9h-0.9V21
		z"/>
	<path class="st0" d="M102,29.4c-0.2,0.2-0.5,0.4-0.8,0.5c-0.3,0.1-0.7,0.2-1,0.2c-0.8,0-1.4-0.2-1.8-0.6c-0.4-0.4-0.6-1-0.6-1.8
		v-5.8h-1.6V21h1.6v-1.9h0.9V21h2.8v0.7h-2.8v5.7c0,0.6,0.1,1,0.4,1.3c0.3,0.3,0.7,0.5,1.2,0.5c0.6,0,1-0.2,1.4-0.5L102,29.4z"/>
	<path class="st0" d="M109.9,21.8c0.6,0.6,0.9,1.4,0.9,2.5v5.6h-0.8v-1.6c-0.3,0.5-0.7,0.9-1.2,1.2c-0.5,0.3-1.2,0.4-2,0.4
		c-1,0-1.8-0.2-2.3-0.7c-0.6-0.5-0.9-1.1-0.9-1.8c0-0.7,0.3-1.3,0.8-1.8c0.5-0.5,1.4-0.7,2.5-0.7h3v-0.7c0-0.8-0.2-1.5-0.7-1.9
		c-0.4-0.4-1.1-0.6-2-0.6c-0.6,0-1.2,0.1-1.7,0.3c-0.5,0.2-1,0.5-1.4,0.8l-0.4-0.6c0.4-0.4,1-0.7,1.6-0.9c0.6-0.2,1.3-0.3,2-0.3
		C108.4,21,109.3,21.3,109.9,21.8z M108.7,28.8c0.5-0.3,0.9-0.8,1.2-1.5v-1.7h-3c-0.9,0-1.5,0.2-1.9,0.5c-0.4,0.3-0.6,0.8-0.6,1.3
		c0,0.6,0.2,1,0.6,1.4c0.4,0.3,1,0.5,1.8,0.5C107.6,29.3,108.2,29.1,108.7,28.8z"/>
	<path class="st0" d="M115.5,29.4c-0.7-0.4-1.2-0.9-1.6-1.6s-0.6-1.5-0.6-2.3c0-0.9,0.2-1.7,0.6-2.3s0.9-1.2,1.6-1.6
		s1.5-0.6,2.3-0.6c0.7,0,1.4,0.1,1.9,0.4c0.6,0.3,1.1,0.7,1.4,1.2l-0.6,0.5c-0.3-0.4-0.7-0.8-1.2-1c-0.5-0.2-1-0.3-1.6-0.3
		c-0.7,0-1.3,0.2-1.9,0.5c-0.6,0.3-1,0.8-1.3,1.3c-0.3,0.6-0.5,1.2-0.5,2s0.2,1.4,0.5,2c0.3,0.6,0.7,1,1.3,1.3
		c0.5,0.3,1.2,0.5,1.9,0.5c0.6,0,1.1-0.1,1.6-0.3c0.5-0.2,0.9-0.6,1.2-1l0.6,0.5c-0.4,0.5-0.8,0.9-1.4,1.2c-0.6,0.3-1.2,0.4-1.9,0.4
		C116.9,30,116.2,29.8,115.5,29.4z"/>
	<path class="st0" d="M123.6,18.7c-0.1-0.1-0.2-0.3-0.2-0.5c0-0.2,0.1-0.4,0.2-0.5c0.1-0.1,0.3-0.2,0.5-0.2c0.2,0,0.4,0.1,0.5,0.2
		c0.1,0.1,0.2,0.3,0.2,0.5c0,0.2-0.1,0.4-0.2,0.5s-0.3,0.2-0.5,0.2C123.9,18.9,123.8,18.8,123.6,18.7z M123.7,21h0.9v8.9h-0.9V21z"
		/>
	<path class="st0" d="M129.4,29.4c-0.7-0.4-1.2-0.9-1.6-1.6s-0.6-1.5-0.6-2.3c0-0.9,0.2-1.6,0.6-2.3s0.9-1.2,1.6-1.6
		s1.4-0.6,2.3-0.6s1.6,0.2,2.3,0.6s1.2,0.9,1.6,1.6s0.6,1.5,0.6,2.3c0,0.9-0.2,1.6-0.6,2.3s-0.9,1.2-1.6,1.6s-1.4,0.6-2.3,0.6
		S130,29.8,129.4,29.4z M133.5,28.8c0.5-0.3,1-0.8,1.3-1.3c0.3-0.6,0.5-1.2,0.5-1.9c0-0.7-0.2-1.4-0.5-1.9c-0.3-0.6-0.7-1-1.3-1.3
		s-1.1-0.5-1.8-0.5s-1.3,0.2-1.8,0.5s-1,0.8-1.3,1.3c-0.3,0.6-0.5,1.2-0.5,1.9c0,0.7,0.2,1.4,0.5,1.9c0.3,0.6,0.7,1,1.3,1.3
		s1.1,0.5,1.8,0.5S132.9,29.1,133.5,28.8z M133,17.6h1.2l-2.7,2h-0.9L133,17.6z"/>
	<path class="st0" d="M145.7,21.9c0.6,0.6,1,1.6,1,2.8v5.2h-0.9v-5.1c0-1-0.3-1.8-0.8-2.3s-1.2-0.8-2.1-0.8c-1,0-1.9,0.3-2.5,0.9
		c-0.6,0.6-0.9,1.5-0.9,2.5v4.7h-0.9V21h0.8V23c0.3-0.6,0.8-1.1,1.4-1.5c0.6-0.4,1.3-0.5,2.2-0.5C144.2,21,145,21.3,145.7,21.9z"/>
</g>
<g>
	<path class="st0" d="M177.6,21.7c0,1.9,1.2,2.9,3,2.9c2.4,0,3.6-0.9,5.2-2.5v-3.9C182.4,18.1,177.6,18.8,177.6,21.7 M189.2,24.8
		v0.6h-2.6c-0.3,0-0.5-0.2-0.6-0.4l-0.2-1.9c-1.9,1.7-3.2,2.6-5.6,2.6c-2.4,0-4-1.5-4-3.9c0-3.6,5.6-4.5,9.6-4.6v-1.6
		c0-2.8-1.2-4.3-3.6-4.3c-1.5,0-3.2,0.8-4,1.6c-0.5,0.5-0.8,0.4-1,0.1l-0.2-0.5c1.6-1.6,3.3-2.4,5.4-2.4c3.3,0,4.9,2.3,4.9,5.5v8.6
		l1.4,0C189,24.3,189.2,24.4,189.2,24.8"/>
	<path class="st0" d="M201.8,14.9c0-2.3-1.7-3.8-4.1-3.8c-2.5,0-4.1,1.4-4.1,3.8c0,2.4,1.6,3.8,4.1,3.8
		C200.1,18.7,201.8,17.3,201.8,14.9 M198.8,24.1c-1.5-0.1-2.7-0.2-3.4-0.3c-1.6,0.6-2.7,1.6-2.7,3c0,2.3,2.9,3.1,5.2,3.1
		c2.9,0,5.5-1.3,5.5-3.5C203.3,24.4,200.9,24.2,198.8,24.1 M201.1,10.9h3.9v0.5c0,0.2-0.2,0.4-0.4,0.4l-2.3,0.2
		c0.6,0.9,0.9,1.8,0.9,2.9c0,3-2.3,4.8-5.4,4.8c-0.9,0-1.7-0.1-2.4-0.4c-0.7,0.4-1.4,1.1-1.4,1.8c0,1.6,2,1.7,5.3,1.8
		c3.1,0.2,5.3,0.7,5.3,3.2c0,3-3.4,4.8-6.8,4.8c-3.2,0-6.4-1.3-6.4-4.1c0-1.8,1.3-2.9,3-3.4c-1.2-0.4-1.6-1-1.6-2.1
		c0-1.1,1-2.1,1.8-2.5c-1.5-0.8-2.3-2.3-2.3-4.1c0-3.1,2.4-4.9,5.4-4.9C198.9,10,200.2,10.4,201.1,10.9"/>
	<path class="st0" d="M218.6,10.6l-0.3,0.8c-0.1,0.3-0.4,0.5-0.7,0.4c-0.4-0.2-0.8-0.3-1.6-0.3c-2.4,0-3.8,1.6-4.6,4.1v8.6l1.6,0.1
		c0.4,0,0.6,0.2,0.6,0.5v0.6h-5.8v-0.6c0-0.4,0.2-0.5,0.6-0.5l1.6-0.1V11.5l-1.6-0.1c-0.4,0-0.6-0.2-0.6-0.5v-0.6h3
		c0.2,0,0.3,0,0.4,0.1c0.1,0.1,0.1,0.2,0.1,0.4l0.1,3.2c1-2.5,2.6-3.9,4.9-3.9C217,10,217.9,10.2,218.6,10.6"/>
	<path class="st0" d="M226.7,24.8v0.6h-5.8v-0.6c0-0.3,0.2-0.5,0.6-0.5l1.6-0.1V11.5l-1.6-0.1c-0.4,0-0.6-0.2-0.6-0.5v-0.6h3.6v13.9
		l1.6,0.1C226.5,24.3,226.7,24.4,226.7,24.8"/>
	<path class="st0" d="M234.9,18.9c-0.7,0.2-1.3,0.3-1.8,0.5c-0.5,0.2-0.8,0.5-0.9,0.7c-0.2,0.3-0.3,0.6-0.3,0.9
		c0,0.7,0.2,1.2,0.6,1.4c0.4,0.3,0.9,0.4,1.5,0.4c0.4,0,0.7,0,1.1-0.1c0.3-0.1,0.7-0.2,0.9-0.3c0.3-0.2,0.5-0.3,0.8-0.5
		c0.3-0.2,0.5-0.5,0.8-0.7v-2.6C236.5,18.7,235.6,18.8,234.9,18.9 M243.2,23.6v1.8h-3.6c-0.4,0-0.6,0-0.8-0.2
		c-0.2-0.1-0.4-0.3-0.5-0.7l-0.3-1.1c-0.4,0.4-0.8,0.7-1.2,0.9c-0.4,0.3-0.8,0.5-1.2,0.7c-0.4,0.2-0.8,0.3-1.3,0.4
		c-0.5,0.1-1,0.2-1.5,0.2c-0.7,0-1.3-0.1-1.8-0.3c-0.5-0.2-1-0.4-1.4-0.8c-0.4-0.4-0.7-0.8-0.9-1.3c-0.2-0.5-0.3-1.1-0.3-1.8
		c0-0.6,0.2-1.2,0.5-1.8c0.3-0.6,0.8-1.1,1.5-1.5c0.7-0.5,1.7-0.9,2.9-1.2c1.2-0.3,2.7-0.5,4.5-0.5v-0.9c0-1.1-0.2-1.8-0.7-2.3
		c-0.4-0.5-1.1-0.8-1.9-0.8c-0.6,0-1.1,0.1-1.5,0.2c-0.4,0.2-0.8,0.3-1.1,0.5c-0.3,0.2-0.6,0.3-0.8,0.5c-0.2,0.2-0.5,0.2-0.8,0.2
		c-0.2,0-0.5-0.1-0.7-0.2c-0.2-0.1-0.3-0.3-0.4-0.5L229,12c1.8-1.6,3.9-2.5,6.5-2.5c0.9,0,1.7,0.2,2.5,0.5c0.7,0.3,1.3,0.7,1.8,1.2
		c0.5,0.5,0.9,1.2,1.2,1.9c0.2,0.7,0.4,1.5,0.4,2.4v6.9l0.8,0.2c0.2,0,0.3,0.1,0.3,0.1C242.9,22.7,243.2,23,243.2,23.6"/>
	<path class="st0" d="M253.4,12.7c-0.5-0.2-1.1-0.3-1.6-0.3s-1.1,0.1-1.5,0.3c-0.5,0.2-0.8,0.5-1.2,1c-0.3,0.4-0.5,1-0.7,1.6
		c-0.2,0.7-0.2,1.4-0.2,2.3c0,0.9,0.1,1.7,0.2,2.3c0.2,0.6,0.4,1.1,0.6,1.5c0.3,0.4,0.6,0.7,1,0.9c0.4,0.2,0.8,0.3,1.3,0.3
		c0.8,0,1.5-0.2,2-0.5c0.5-0.3,1.1-0.8,1.5-1.4v-7C254.3,13.3,253.9,12.9,253.4,12.7 M256.2,25.3c-0.2,0-0.4-0.1-0.6-0.2
		c-0.2-0.1-0.3-0.3-0.3-0.5l-0.3-1.4c-0.6,0.7-1.3,1.3-2.2,1.7c-0.8,0.5-1.8,0.7-2.9,0.7c-0.8,0-1.6-0.2-2.3-0.5
		c-0.7-0.4-1.3-0.9-1.8-1.5c-0.5-0.7-0.9-1.5-1.2-2.5c-0.3-1-0.4-2.1-0.4-3.4c0-1.2,0.2-2.2,0.5-3.2c0.3-1,0.8-1.9,1.4-2.6
		c0.6-0.7,1.3-1.3,2.1-1.7c0.8-0.4,1.7-0.6,2.8-0.6c0.9,0,1.6,0.2,2.2,0.4c0.6,0.3,1.2,0.6,1.6,1.1V5.8l-0.9-0.2
		c-0.2,0-0.4-0.1-0.5-0.1c-0.1,0-0.2,0-0.2,0c-0.5-0.1-0.8-0.4-0.8-0.9V2.8h6v19.5c0.3,0.1,0.6,0.1,0.8,0.1c0.2,0,0.3,0.1,0.4,0.1
		c0.1,0,0.1,0,0.2,0c0.5,0.1,0.8,0.4,0.8,0.9v1.8H256.2z"/>
	<path class="st0" d="M268.1,18.9c-0.7,0.2-1.3,0.3-1.8,0.5c-0.5,0.2-0.8,0.5-0.9,0.7c-0.2,0.3-0.3,0.6-0.3,0.9
		c0,0.7,0.2,1.2,0.6,1.4c0.4,0.3,0.9,0.4,1.5,0.4c0.4,0,0.7,0,1.1-0.1c0.3-0.1,0.7-0.2,0.9-0.3c0.3-0.2,0.5-0.3,0.8-0.5
		c0.3-0.2,0.5-0.5,0.8-0.7v-2.6C269.7,18.7,268.8,18.8,268.1,18.9 M276.4,23.6v1.8h-3.6c-0.4,0-0.6,0-0.8-0.2
		c-0.2-0.1-0.4-0.3-0.5-0.7l-0.3-1.1c-0.4,0.4-0.8,0.7-1.2,0.9c-0.4,0.3-0.8,0.5-1.2,0.7c-0.4,0.2-0.8,0.3-1.3,0.4
		c-0.5,0.1-1,0.2-1.5,0.2c-0.7,0-1.3-0.1-1.8-0.3c-0.5-0.2-1-0.4-1.4-0.8c-0.4-0.4-0.7-0.8-0.9-1.3c-0.2-0.5-0.3-1.1-0.3-1.8
		c0-0.6,0.2-1.2,0.5-1.8c0.3-0.6,0.8-1.1,1.5-1.5c0.7-0.5,1.7-0.9,2.9-1.2c1.2-0.3,2.7-0.5,4.5-0.5v-0.9c0-1.1-0.2-1.8-0.7-2.3
		c-0.4-0.5-1.1-0.8-1.9-0.8c-0.6,0-1.1,0.1-1.5,0.2c-0.4,0.2-0.8,0.3-1.1,0.5c-0.3,0.2-0.6,0.3-0.8,0.5c-0.2,0.2-0.5,0.2-0.8,0.2
		c-0.2,0-0.5-0.1-0.7-0.2c-0.2-0.1-0.3-0.3-0.4-0.5l-0.7-1.2c1.8-1.6,3.9-2.5,6.5-2.5c0.9,0,1.7,0.2,2.5,0.5
		c0.7,0.3,1.3,0.7,1.8,1.2c0.5,0.5,0.9,1.2,1.2,1.9c0.2,0.7,0.4,1.5,0.4,2.4v6.9l0.8,0.2c0.2,0,0.3,0.1,0.3,0.1
		C276.1,22.7,276.4,23,276.4,23.6"/>
	<path class="st0" d="M290,17.5c0-0.9-0.1-1.7-0.2-2.3c-0.2-0.6-0.4-1.1-0.6-1.5c-0.3-0.4-0.6-0.7-1-0.9c-0.4-0.2-0.8-0.3-1.3-0.3
		c-0.8,0-1.5,0.2-2,0.5c-0.5,0.3-1.1,0.8-1.5,1.4v7c0.4,0.5,0.9,0.9,1.4,1.1c0.5,0.2,1,0.3,1.6,0.3c0.6,0,1.1-0.1,1.5-0.3
		c0.5-0.2,0.8-0.5,1.2-1c0.3-0.4,0.6-1,0.8-1.6C290,19.2,290,18.4,290,17.5 M293.9,17.5c0,1.2-0.2,2.2-0.5,3.2
		c-0.3,1-0.8,1.9-1.3,2.6c-0.6,0.7-1.3,1.3-2.1,1.7c-0.8,0.4-1.8,0.6-2.8,0.6c-0.9,0-1.6-0.1-2.2-0.4c-0.6-0.3-1.2-0.6-1.7-1.1v3.4
		c0.4,0.1,0.7,0.2,0.9,0.2c0.2,0,0.4,0,0.5,0.1c0.1,0,0.2,0,0.2,0c0.5,0.1,0.8,0.5,0.8,1v1.8h-8.3v-1.8c0-0.5,0.2-0.8,0.8-1
		c0,0,0.1,0,0.2,0c0.1,0,0.2,0,0.5-0.1c0.2,0,0.5-0.1,0.9-0.2V12.8l-0.9-0.2c-0.2,0-0.4-0.1-0.5-0.1c-0.1,0-0.2,0-0.2,0
		c-0.5-0.1-0.8-0.4-0.8-0.9V9.8h4.6c0.2,0,0.5,0.1,0.6,0.2c0.2,0.1,0.3,0.3,0.3,0.5l0.3,1.4c0.6-0.7,1.3-1.3,2.2-1.7
		c0.8-0.5,1.8-0.7,2.9-0.7c0.8,0,1.6,0.2,2.3,0.5c0.7,0.4,1.3,0.9,1.8,1.5c0.5,0.7,0.9,1.5,1.2,2.5
		C293.8,15.1,293.9,16.2,293.9,17.5"/>
	<path class="st0" d="M298.2,24.5c-0.7-0.8-1.1-1.8-1.1-3.2v-8.7h-1.6c-0.2,0-0.4-0.1-0.5-0.2c-0.2-0.1-0.2-0.3-0.2-0.6v-1.5
		l2.5-0.4l0.8-4.2c0-0.2,0.1-0.3,0.3-0.5c0.2-0.1,0.4-0.2,0.6-0.2h1.9V10h4.1v2.7h-4.1v8.4c0,0.5,0.1,0.8,0.4,1.1
		c0.2,0.3,0.6,0.4,1,0.4c0.2,0,0.4,0,0.6-0.1l0.4-0.2c0.1-0.1,0.2-0.1,0.3-0.2c0.1-0.1,0.2-0.1,0.2-0.1c0.1,0,0.2,0,0.3,0.1
		c0.1,0.1,0.1,0.1,0.2,0.2l1.1,1.8c-0.5,0.5-1.2,0.8-1.9,1c-0.7,0.2-1.4,0.4-2.2,0.4C300,25.6,298.9,25.2,298.2,24.5"/>
	<path class="st0" d="M312.7,18.9c-0.7,0.2-1.3,0.3-1.8,0.5c-0.5,0.2-0.8,0.5-0.9,0.7c-0.2,0.3-0.3,0.6-0.3,0.9
		c0,0.7,0.2,1.2,0.6,1.4c0.4,0.3,0.9,0.4,1.5,0.4c0.4,0,0.7,0,1.1-0.1c0.3-0.1,0.7-0.2,0.9-0.3c0.3-0.2,0.5-0.3,0.8-0.5
		c0.3-0.2,0.5-0.5,0.8-0.7v-2.6C314.4,18.7,313.5,18.8,312.7,18.9 M321,23.6v1.8h-3.6c-0.4,0-0.6,0-0.8-0.2
		c-0.2-0.1-0.4-0.3-0.5-0.7l-0.3-1.1c-0.4,0.4-0.8,0.7-1.2,0.9c-0.4,0.3-0.8,0.5-1.2,0.7c-0.4,0.2-0.8,0.3-1.3,0.4
		c-0.5,0.1-1,0.2-1.5,0.2c-0.7,0-1.3-0.1-1.8-0.3c-0.5-0.2-1-0.4-1.4-0.8c-0.4-0.4-0.7-0.8-0.9-1.3c-0.2-0.5-0.3-1.1-0.3-1.8
		c0-0.6,0.2-1.2,0.5-1.8c0.3-0.6,0.8-1.1,1.5-1.5c0.7-0.5,1.7-0.9,2.9-1.2c1.2-0.3,2.7-0.5,4.5-0.5v-0.9c0-1.1-0.2-1.8-0.7-2.3
		c-0.4-0.5-1.1-0.8-1.9-0.8c-0.6,0-1.1,0.1-1.5,0.2c-0.4,0.2-0.8,0.3-1.1,0.5c-0.3,0.2-0.6,0.3-0.8,0.5c-0.2,0.2-0.5,0.2-0.8,0.2
		c-0.2,0-0.5-0.1-0.7-0.2c-0.2-0.1-0.3-0.3-0.4-0.5l-0.7-1.2c1.8-1.6,3.9-2.5,6.5-2.5c0.9,0,1.7,0.2,2.5,0.5
		c0.7,0.3,1.3,0.7,1.8,1.2c0.5,0.5,0.9,1.2,1.2,1.9c0.2,0.7,0.4,1.5,0.4,2.4v6.9l0.8,0.2c0.2,0,0.3,0.1,0.3,0.1
		C320.8,22.7,321,23,321,23.6"/>
	<path class="st0" d="M222.5,5c0-0.7,0.6-1.3,1.3-1.3c0.7,0,1.3,0.6,1.3,1.3c0,0.8-0.6,1.4-1.3,1.4C223.1,6.4,222.5,5.8,222.5,5"/>
	<path class="st0" d="M199.7,38l-0.7,1.5h1.5L199.7,38z M199.7,37.1l2,4.2h-0.5l-0.7-1.4h-1.8l-0.7,1.4h-0.5l2-4.2H199.7z"/>
	<path class="st0" d="M203.9,38.5c-0.3,0-0.6,0.1-0.9,0.4c-0.2,0.2-0.4,0.5-0.4,0.9c0,0.2,0.1,0.5,0.2,0.6c0.1,0.2,0.3,0.3,0.5,0.5
		c0.2,0.1,0.4,0.2,0.6,0.2c0.2,0,0.4-0.1,0.6-0.2c0.2-0.1,0.3-0.3,0.5-0.5c0.1-0.2,0.2-0.4,0.2-0.6c0-0.2-0.1-0.4-0.2-0.6
		c-0.1-0.2-0.3-0.4-0.5-0.5C204.4,38.5,204.2,38.5,203.9,38.5 M202.3,38.2h0.4v0.6c0.2-0.2,0.3-0.4,0.6-0.5c0.2-0.1,0.4-0.2,0.7-0.2
		c0.4,0,0.8,0.2,1.1,0.5c0.3,0.3,0.5,0.7,0.5,1.2c0,0.5-0.2,0.9-0.5,1.2c-0.3,0.3-0.7,0.5-1.1,0.5c-0.2,0-0.5-0.1-0.7-0.2
		c-0.2-0.1-0.4-0.3-0.6-0.5v1.7h-0.4V38.2z"/>
	<path class="st0" d="M206.2,38.2h0.4v0.5c0.1-0.2,0.3-0.3,0.4-0.4c0.1-0.1,0.3-0.1,0.4-0.1c0.1,0,0.2,0,0.4,0.1l-0.2,0.3
		c-0.1,0-0.2-0.1-0.2-0.1c-0.1,0-0.3,0.1-0.4,0.2c-0.1,0.1-0.2,0.3-0.3,0.5c0,0.2-0.1,0.5-0.1,1.1v1.1h-0.4V38.2z"/>
	<path class="st0" d="M210.8,39.4c-0.1-0.2-0.1-0.4-0.2-0.5c-0.1-0.1-0.2-0.2-0.4-0.3c-0.2-0.1-0.3-0.1-0.5-0.1
		c-0.3,0-0.6,0.1-0.8,0.3c-0.2,0.1-0.3,0.4-0.4,0.6H210.8z M210.8,40.3l0.3,0.2c-0.1,0.2-0.2,0.4-0.4,0.5c-0.1,0.1-0.3,0.2-0.5,0.3
		c-0.2,0.1-0.4,0.1-0.6,0.1c-0.5,0-0.9-0.2-1.2-0.5c-0.3-0.3-0.4-0.7-0.4-1.1c0-0.4,0.1-0.8,0.4-1.1c0.3-0.4,0.7-0.6,1.2-0.6
		c0.5,0,1,0.2,1.3,0.6c0.2,0.3,0.3,0.6,0.3,1.1h-2.8c0,0.4,0.1,0.7,0.3,0.9c0.2,0.2,0.5,0.3,0.8,0.3c0.2,0,0.3,0,0.5-0.1
		c0.2-0.1,0.3-0.1,0.4-0.2C210.5,40.6,210.7,40.5,210.8,40.3"/>
	<path class="st0" d="M212,38.2h0.4v0.6c0.2-0.2,0.3-0.4,0.5-0.5c0.2-0.1,0.4-0.2,0.6-0.2c0.2,0,0.4,0.1,0.6,0.2
		c0.2,0.1,0.3,0.3,0.4,0.5c0.1,0.2,0.1,0.5,0.1,0.9v1.6h-0.4v-1.5c0-0.4,0-0.6,0-0.7c0-0.2-0.1-0.4-0.3-0.5
		c-0.1-0.1-0.3-0.2-0.5-0.2c-0.2,0-0.5,0.1-0.7,0.2c-0.2,0.2-0.3,0.4-0.4,0.6c0,0.2-0.1,0.4-0.1,0.9v1.2H212V38.2z"/>
	<path class="st0" d="M217.1,38.5c-0.2,0-0.4,0.1-0.6,0.2c-0.2,0.1-0.3,0.3-0.5,0.5c-0.1,0.2-0.2,0.4-0.2,0.6c0,0.2,0.1,0.4,0.2,0.6
		c0.1,0.2,0.3,0.4,0.5,0.5c0.2,0.1,0.4,0.2,0.6,0.2c0.2,0,0.4-0.1,0.6-0.2c0.2-0.1,0.4-0.3,0.5-0.5c0.1-0.2,0.2-0.4,0.2-0.6
		c0-0.4-0.1-0.7-0.4-0.9C217.8,38.6,217.5,38.5,217.1,38.5 M218.7,36.9v4.4h-0.4v-0.5c-0.2,0.2-0.4,0.4-0.6,0.5
		c-0.2,0.1-0.4,0.2-0.7,0.2c-0.4,0-0.8-0.2-1.1-0.5c-0.3-0.3-0.5-0.7-0.5-1.2c0-0.5,0.2-0.8,0.5-1.2c0.3-0.3,0.7-0.5,1.1-0.5
		c0.3,0,0.5,0.1,0.7,0.2c0.2,0.1,0.4,0.3,0.6,0.5v-1.8H218.7z"/>
	<path class="st0" d="M219.6,38.2h0.4v3.1h-0.4V38.2z M219.8,36.9c0.1,0,0.2,0,0.2,0.1c0.1,0.1,0.1,0.1,0.1,0.2c0,0.1,0,0.2-0.1,0.2
		c-0.1,0.1-0.1,0.1-0.2,0.1c-0.1,0-0.2,0-0.2-0.1c-0.1-0.1-0.1-0.1-0.1-0.2c0-0.1,0-0.2,0.1-0.2C219.6,36.9,219.7,36.9,219.8,36.9"
		/>
	<path class="st0" d="M223.5,39.4c-0.1-0.2-0.1-0.4-0.2-0.5c-0.1-0.1-0.2-0.2-0.4-0.3c-0.2-0.1-0.3-0.1-0.5-0.1
		c-0.3,0-0.6,0.1-0.8,0.3c-0.2,0.1-0.3,0.4-0.4,0.6H223.5z M223.5,40.3l0.3,0.2c-0.1,0.2-0.2,0.4-0.4,0.5c-0.1,0.1-0.3,0.2-0.5,0.3
		c-0.2,0.1-0.4,0.1-0.6,0.1c-0.5,0-0.9-0.2-1.2-0.5c-0.3-0.3-0.4-0.7-0.4-1.1c0-0.4,0.1-0.8,0.4-1.1c0.3-0.4,0.7-0.6,1.2-0.6
		c0.5,0,1,0.2,1.3,0.6c0.2,0.3,0.3,0.6,0.3,1.1h-2.8c0,0.4,0.1,0.7,0.3,0.9c0.2,0.2,0.5,0.3,0.8,0.3c0.2,0,0.3,0,0.5-0.1
		c0.2-0.1,0.3-0.1,0.4-0.2C223.2,40.6,223.4,40.5,223.5,40.3"/>
	<path class="st0" d="M224.7,38.2h0.4v0.6c0.2-0.2,0.3-0.4,0.5-0.5c0.2-0.1,0.4-0.2,0.6-0.2c0.2,0,0.4,0.1,0.6,0.2
		c0.2,0.1,0.3,0.3,0.4,0.5c0.1,0.2,0.1,0.5,0.1,0.9v1.6H227v-1.5c0-0.4,0-0.6,0-0.7c0-0.2-0.1-0.4-0.3-0.5s-0.3-0.2-0.5-0.2
		c-0.2,0-0.5,0.1-0.7,0.2c-0.2,0.2-0.3,0.4-0.4,0.6c0,0.2-0.1,0.4-0.1,0.9v1.2h-0.4V38.2z"/>
	<path class="st0" d="M229.8,38.5c-0.2,0-0.4,0.1-0.6,0.2c-0.2,0.1-0.3,0.3-0.5,0.5c-0.1,0.2-0.2,0.4-0.2,0.6c0,0.2,0.1,0.4,0.2,0.6
		c0.1,0.2,0.3,0.4,0.5,0.5c0.2,0.1,0.4,0.2,0.6,0.2c0.2,0,0.4-0.1,0.6-0.2c0.2-0.1,0.4-0.3,0.5-0.5c0.1-0.2,0.2-0.4,0.2-0.6
		c0-0.4-0.1-0.7-0.4-0.9C230.4,38.6,230.2,38.5,229.8,38.5 M231.4,36.9v4.4H231v-0.5c-0.2,0.2-0.4,0.4-0.6,0.5
		c-0.2,0.1-0.4,0.2-0.7,0.2c-0.4,0-0.8-0.2-1.1-0.5c-0.3-0.3-0.5-0.7-0.5-1.2c0-0.5,0.2-0.8,0.5-1.2c0.3-0.3,0.7-0.5,1.1-0.5
		c0.3,0,0.5,0.1,0.7,0.2c0.2,0.1,0.4,0.3,0.6,0.5v-1.8H231.4z"/>
	<path class="st0" d="M233.8,38.5c-0.3,0-0.6,0.1-0.9,0.4c-0.2,0.2-0.4,0.5-0.4,0.9c0,0.2,0.1,0.4,0.2,0.6c0.1,0.2,0.3,0.3,0.4,0.5
		c0.2,0.1,0.4,0.2,0.6,0.2c0.2,0,0.4-0.1,0.6-0.2c0.2-0.1,0.3-0.3,0.4-0.5c0.1-0.2,0.2-0.4,0.2-0.6c0-0.4-0.1-0.7-0.4-0.9
		C234.4,38.6,234.2,38.5,233.8,38.5 M233.8,38.1c0.5,0,0.9,0.2,1.2,0.5c0.3,0.3,0.4,0.7,0.4,1.1c0,0.4-0.2,0.8-0.5,1.2
		c-0.3,0.3-0.7,0.5-1.2,0.5c-0.5,0-0.9-0.2-1.2-0.5c-0.3-0.3-0.5-0.7-0.5-1.2c0-0.4,0.1-0.8,0.4-1.1
		C232.9,38.3,233.3,38.1,233.8,38.1"/>
	<path class="st0" d="M239.4,38.5c-0.2,0-0.4,0.1-0.6,0.2c-0.2,0.1-0.3,0.3-0.5,0.5c-0.1,0.2-0.2,0.4-0.2,0.6c0,0.2,0.1,0.4,0.2,0.6
		c0.1,0.2,0.3,0.4,0.5,0.5c0.2,0.1,0.4,0.2,0.6,0.2c0.2,0,0.4-0.1,0.6-0.2c0.2-0.1,0.3-0.3,0.5-0.5c0.1-0.2,0.2-0.4,0.2-0.6
		c0-0.4-0.1-0.7-0.4-0.9C240,38.6,239.7,38.5,239.4,38.5 M241,36.9v4.4h-0.4v-0.5c-0.2,0.2-0.4,0.4-0.6,0.5
		c-0.2,0.1-0.4,0.2-0.7,0.2c-0.4,0-0.8-0.2-1.1-0.5c-0.3-0.3-0.5-0.7-0.5-1.2c0-0.5,0.2-0.8,0.5-1.2c0.3-0.3,0.7-0.5,1.1-0.5
		c0.3,0,0.5,0.1,0.7,0.2c0.2,0.1,0.4,0.3,0.6,0.5v-1.8H241z"/>
	<path class="st0" d="M244.5,39.4c-0.1-0.2-0.1-0.4-0.2-0.5c-0.1-0.1-0.2-0.2-0.4-0.3c-0.2-0.1-0.3-0.1-0.5-0.1
		c-0.3,0-0.6,0.1-0.8,0.3c-0.2,0.1-0.3,0.4-0.4,0.6H244.5z M244.5,40.3l0.3,0.2c-0.1,0.2-0.2,0.4-0.4,0.5c-0.1,0.1-0.3,0.2-0.5,0.3
		c-0.2,0.1-0.4,0.1-0.6,0.1c-0.5,0-0.9-0.2-1.2-0.5c-0.3-0.3-0.4-0.7-0.4-1.1c0-0.4,0.1-0.8,0.4-1.1c0.3-0.4,0.7-0.6,1.2-0.6
		c0.5,0,1,0.2,1.3,0.6c0.2,0.3,0.3,0.6,0.3,1.1h-2.8c0,0.4,0.1,0.7,0.3,0.9c0.2,0.2,0.5,0.3,0.8,0.3c0.2,0,0.3,0,0.5-0.1
		c0.2-0.1,0.3-0.1,0.4-0.2C244.3,40.6,244.4,40.5,244.5,40.3"/>
	<rect x="245.7" y="36.9" class="st0" width="0.4" height="4.4"/>
	<path class="st0" d="M252.6,37.8l-0.3,0.3c-0.2-0.2-0.4-0.4-0.7-0.5c-0.3-0.1-0.5-0.2-0.9-0.2c-0.3,0-0.7,0.1-0.9,0.2
		c-0.3,0.2-0.5,0.4-0.7,0.7c-0.2,0.3-0.2,0.6-0.2,0.9c0,0.5,0.2,1,0.5,1.3c0.4,0.3,0.8,0.5,1.3,0.5c0.6,0,1.1-0.2,1.5-0.7l0.3,0.3
		c-0.2,0.3-0.5,0.5-0.8,0.6c-0.3,0.1-0.7,0.2-1.1,0.2c-0.7,0-1.3-0.2-1.8-0.7c-0.4-0.4-0.5-0.9-0.5-1.5c0-0.6,0.2-1.1,0.7-1.6
		c0.4-0.4,1-0.6,1.6-0.6c0.4,0,0.8,0.1,1.1,0.2C252.1,37.3,252.4,37.6,252.6,37.8"/>
	<path class="st0" d="M254.9,38.5c-0.2,0-0.4,0.1-0.6,0.2c-0.2,0.1-0.3,0.3-0.5,0.5c-0.1,0.2-0.2,0.4-0.2,0.6c0,0.2,0.1,0.4,0.2,0.6
		c0.1,0.2,0.3,0.4,0.5,0.5c0.2,0.1,0.4,0.2,0.6,0.2c0.2,0,0.4-0.1,0.6-0.2c0.2-0.1,0.4-0.3,0.5-0.5c0.1-0.2,0.2-0.4,0.2-0.6
		c0-0.4-0.1-0.7-0.4-0.9C255.5,38.6,255.2,38.5,254.9,38.5 M256.5,38.2v3.1h-0.4v-0.5c-0.2,0.2-0.4,0.4-0.6,0.5
		c-0.2,0.1-0.4,0.2-0.7,0.2c-0.4,0-0.8-0.2-1.1-0.5c-0.3-0.3-0.5-0.7-0.5-1.2c0-0.5,0.2-0.8,0.5-1.2c0.3-0.3,0.7-0.5,1.1-0.5
		c0.3,0,0.5,0.1,0.7,0.2c0.2,0.1,0.4,0.3,0.6,0.5v-0.6H256.5z"/>
	<path class="st0" d="M257.4,38.2h0.4v0.5c0.1-0.2,0.3-0.3,0.4-0.4c0.2-0.1,0.4-0.2,0.6-0.2c0.2,0,0.3,0,0.4,0.1
		c0.1,0.1,0.2,0.1,0.3,0.2c0.1,0.1,0.2,0.2,0.2,0.4c0.1-0.2,0.3-0.4,0.5-0.6c0.2-0.1,0.4-0.2,0.7-0.2c0.2,0,0.4,0.1,0.6,0.2
		c0.2,0.1,0.3,0.3,0.4,0.5c0.1,0.2,0.1,0.5,0.1,0.9v1.7h-0.4v-1.7c0-0.3,0-0.6-0.1-0.7c0-0.1-0.1-0.2-0.2-0.3
		c-0.1-0.1-0.3-0.1-0.4-0.1c-0.2,0-0.4,0.1-0.5,0.2c-0.2,0.1-0.3,0.3-0.4,0.5c-0.1,0.2-0.1,0.5-0.1,1v1.2h-0.4v-1.6
		c0-0.4,0-0.6-0.1-0.8c0-0.1-0.1-0.2-0.2-0.3c-0.1-0.1-0.3-0.1-0.4-0.1c-0.2,0-0.4,0.1-0.5,0.2c-0.2,0.1-0.3,0.3-0.4,0.5
		c-0.1,0.2-0.1,0.5-0.1,0.9v1.3h-0.4V38.2z"/>
	<path class="st0" d="M264.6,41c0.2,0,0.4-0.1,0.6-0.2c0.2-0.1,0.3-0.3,0.5-0.5c0.1-0.2,0.2-0.4,0.2-0.6c0-0.2-0.1-0.4-0.2-0.6
		c-0.1-0.2-0.3-0.4-0.5-0.5c-0.2-0.1-0.4-0.2-0.6-0.2c-0.2,0-0.4,0.1-0.6,0.2c-0.2,0.1-0.4,0.3-0.5,0.5c-0.1,0.2-0.2,0.4-0.2,0.6
		c0,0.4,0.1,0.7,0.4,0.9C264,40.9,264.3,41,264.6,41 M263,41.3v-4.4h0.4v1.8c0.2-0.2,0.4-0.4,0.6-0.5c0.2-0.1,0.4-0.2,0.7-0.2
		c0.4,0,0.8,0.2,1.1,0.5c0.3,0.3,0.5,0.7,0.5,1.2c0,0.5-0.2,0.8-0.5,1.2c-0.3,0.3-0.7,0.5-1.1,0.5c-0.3,0-0.5-0.1-0.7-0.2
		c-0.2-0.1-0.4-0.3-0.6-0.5v0.6H263z"/>
	<path class="st0" d="M266.9,38.2h0.4v3.1h-0.4V38.2z M267.1,36.9c0.1,0,0.2,0,0.2,0.1c0.1,0.1,0.1,0.1,0.1,0.2c0,0.1,0,0.2-0.1,0.2
		c-0.1,0.1-0.1,0.1-0.2,0.1c-0.1,0-0.2,0-0.2-0.1c-0.1-0.1-0.1-0.1-0.1-0.2c0-0.1,0-0.2,0.1-0.2C267,36.9,267.1,36.9,267.1,36.9"/>
	<path class="st0" d="M269.7,38.5c-0.3,0-0.6,0.1-0.9,0.4c-0.2,0.2-0.4,0.5-0.4,0.9c0,0.2,0.1,0.4,0.2,0.6c0.1,0.2,0.3,0.3,0.4,0.5
		c0.2,0.1,0.4,0.2,0.6,0.2c0.2,0,0.4-0.1,0.6-0.2c0.2-0.1,0.3-0.3,0.4-0.5c0.1-0.2,0.2-0.4,0.2-0.6c0-0.4-0.1-0.7-0.4-0.9
		C270.3,38.6,270,38.5,269.7,38.5 M269.7,38.1c0.5,0,0.9,0.2,1.2,0.5c0.3,0.3,0.4,0.7,0.4,1.1c0,0.4-0.2,0.8-0.5,1.2
		c-0.3,0.3-0.7,0.5-1.2,0.5c-0.5,0-0.9-0.2-1.2-0.5c-0.3-0.3-0.5-0.7-0.5-1.2c0-0.4,0.1-0.8,0.4-1.1
		C268.8,38.3,269.2,38.1,269.7,38.1"/>
	<path class="st0" d="M277.7,37.8l-0.3,0.3c-0.2-0.2-0.4-0.4-0.7-0.5c-0.3-0.1-0.5-0.2-0.9-0.2c-0.3,0-0.7,0.1-0.9,0.2
		c-0.3,0.2-0.5,0.4-0.7,0.7c-0.2,0.3-0.2,0.6-0.2,0.9c0,0.5,0.2,1,0.5,1.3c0.4,0.3,0.8,0.5,1.3,0.5c0.6,0,1.1-0.2,1.5-0.7l0.3,0.3
		c-0.2,0.3-0.5,0.5-0.8,0.6c-0.3,0.1-0.7,0.2-1.1,0.2c-0.7,0-1.3-0.2-1.8-0.7c-0.4-0.4-0.5-0.9-0.5-1.5c0-0.6,0.2-1.1,0.7-1.6
		c0.4-0.4,1-0.6,1.6-0.6c0.4,0,0.8,0.1,1.1,0.2C277.3,37.3,277.5,37.6,277.7,37.8"/>
	<rect x="278.5" y="36.9" class="st0" width="0.4" height="4.4"/>
	<path class="st0" d="M279.6,38.2h0.4v3.1h-0.4V38.2z M279.8,36.9c0.1,0,0.2,0,0.2,0.1c0.1,0.1,0.1,0.1,0.1,0.2c0,0.1,0,0.2-0.1,0.2
		c-0.1,0.1-0.1,0.1-0.2,0.1c-0.1,0-0.2,0-0.2-0.1c-0.1-0.1-0.1-0.1-0.1-0.2c0-0.1,0-0.2,0.1-0.2C279.7,36.9,279.7,36.9,279.8,36.9"
		/>
	<path class="st0" d="M280.9,38.2h0.4v0.5c0.1-0.2,0.3-0.3,0.4-0.4c0.2-0.1,0.4-0.2,0.6-0.2c0.2,0,0.3,0,0.4,0.1
		c0.1,0.1,0.2,0.1,0.3,0.2c0.1,0.1,0.2,0.2,0.2,0.4c0.1-0.2,0.3-0.4,0.5-0.6c0.2-0.1,0.4-0.2,0.7-0.2c0.2,0,0.4,0.1,0.6,0.2
		c0.2,0.1,0.3,0.3,0.4,0.5c0.1,0.2,0.1,0.5,0.1,0.9v1.7h-0.4v-1.7c0-0.3,0-0.6-0.1-0.7c0-0.1-0.1-0.2-0.2-0.3
		c-0.1-0.1-0.3-0.1-0.4-0.1c-0.2,0-0.4,0.1-0.5,0.2c-0.2,0.1-0.3,0.3-0.4,0.5c-0.1,0.2-0.1,0.5-0.1,1v1.2H283v-1.6
		c0-0.4,0-0.6-0.1-0.8c0-0.1-0.1-0.2-0.2-0.3c-0.1-0.1-0.3-0.1-0.4-0.1c-0.2,0-0.4,0.1-0.5,0.2c-0.2,0.1-0.3,0.3-0.4,0.5
		c-0.1,0.2-0.1,0.5-0.1,0.9v1.3h-0.4V38.2z"/>
	<path class="st0" d="M288.2,36.7h0.6l-0.9,0.9h-0.4L288.2,36.7z M287.9,38.5c-0.2,0-0.4,0.1-0.6,0.2c-0.2,0.1-0.3,0.3-0.5,0.5
		c-0.1,0.2-0.2,0.4-0.2,0.6c0,0.2,0.1,0.4,0.2,0.6c0.1,0.2,0.3,0.4,0.5,0.5c0.2,0.1,0.4,0.2,0.6,0.2c0.2,0,0.4-0.1,0.6-0.2
		c0.2-0.1,0.4-0.3,0.5-0.5c0.1-0.2,0.2-0.4,0.2-0.6c0-0.4-0.1-0.7-0.4-0.9C288.6,38.6,288.3,38.5,287.9,38.5 M289.6,38.2v3.1h-0.4
		v-0.5c-0.2,0.2-0.4,0.4-0.6,0.5c-0.2,0.1-0.4,0.2-0.7,0.2c-0.4,0-0.8-0.2-1.1-0.5c-0.3-0.3-0.5-0.7-0.5-1.2c0-0.5,0.2-0.8,0.5-1.2
		c0.3-0.3,0.7-0.5,1.1-0.5c0.3,0,0.5,0.1,0.7,0.2c0.2,0.1,0.4,0.3,0.6,0.5v-0.6H289.6z"/>
	<polygon class="st0" points="290.8,37 291.2,37 291.2,38.2 291.9,38.2 291.9,38.5 291.2,38.5 291.2,41.3 290.8,41.3 290.8,38.5 
		290.3,38.5 290.3,38.2 290.8,38.2 	"/>
	<path class="st0" d="M292.4,38.2h0.4v3.1h-0.4V38.2z M292.6,36.9c0.1,0,0.2,0,0.2,0.1c0.1,0.1,0.1,0.1,0.1,0.2c0,0.1,0,0.2-0.1,0.2
		c-0.1,0.1-0.1,0.1-0.2,0.1c-0.1,0-0.2,0-0.2-0.1c-0.1-0.1-0.1-0.1-0.1-0.2c0-0.1,0-0.2,0.1-0.2C292.5,36.9,292.5,36.9,292.6,36.9"
		/>
	<path class="st0" d="M296.7,38.8l-0.3,0.2c-0.3-0.4-0.7-0.6-1.1-0.6c-0.4,0-0.7,0.1-1,0.4c-0.3,0.2-0.4,0.5-0.4,0.9
		c0,0.2,0.1,0.4,0.2,0.6c0.1,0.2,0.3,0.4,0.5,0.5c0.2,0.1,0.4,0.2,0.7,0.2c0.5,0,0.8-0.2,1.1-0.6l0.3,0.2c-0.1,0.2-0.4,0.4-0.6,0.5
		c-0.3,0.1-0.5,0.2-0.9,0.2c-0.5,0-0.9-0.2-1.2-0.5c-0.3-0.3-0.5-0.7-0.5-1.2c0-0.3,0.1-0.6,0.2-0.8c0.2-0.3,0.4-0.5,0.6-0.6
		c0.3-0.1,0.6-0.2,0.9-0.2c0.2,0,0.4,0,0.6,0.1c0.2,0.1,0.4,0.1,0.5,0.2C296.5,38.5,296.6,38.7,296.7,38.8"/>
	<path class="st0" d="M299,38.5c-0.3,0-0.6,0.1-0.9,0.4c-0.2,0.2-0.4,0.5-0.4,0.9c0,0.2,0.1,0.4,0.2,0.6c0.1,0.2,0.3,0.3,0.4,0.5
		c0.2,0.1,0.4,0.2,0.6,0.2c0.2,0,0.4-0.1,0.6-0.2c0.2-0.1,0.3-0.3,0.4-0.5c0.1-0.2,0.2-0.4,0.2-0.6c0-0.4-0.1-0.7-0.4-0.9
		C299.6,38.6,299.3,38.5,299,38.5 M299,38.1c0.5,0,0.9,0.2,1.2,0.5c0.3,0.3,0.4,0.7,0.4,1.1c0,0.4-0.2,0.8-0.5,1.2
		c-0.3,0.3-0.7,0.5-1.2,0.5c-0.5,0-0.9-0.2-1.2-0.5c-0.3-0.3-0.5-0.7-0.5-1.2c0-0.4,0.1-0.8,0.4-1.1C298.1,38.3,298.5,38.1,299,38.1
		"/>
</g>
</svg>
