<?xml version="1.0" encoding="utf-8"?>
<!-- Generator: Adobe Illustrator 25.3.1, SVG Export Plug-In . SVG Version: 6.00 Build 0)  -->
<svg version="1.1" id="Capa_1" xmlns="http://www.w3.org/2000/svg" xmlns:xlink="http://www.w3.org/1999/xlink" x="0px" y="0px"
	 viewBox="0 0 245.3 55.5" style="enable-background:new 0 0 245.3 55.5;" xml:space="preserve">
<style type="text/css">
	.st0{fill:#FFFFFF;}
</style>
<g>
	<g>
		<g>
			<path class="st0" d="M28.6,52.9C14.5,52.9,3,41.4,3,27.2C3,13.1,14.5,1.6,28.6,1.6s25.7,11.5,25.7,25.7S42.8,52.9,28.6,52.9z
				 M28.6,17.1c0,0,2.1,2.2,2.1,4c0,1.9-1.5,2.4-2,2.4h-0.1l0,0h-0.1c-0.5,0-2-0.5-2-2.4C26.5,19.3,28.5,17.1,28.6,17.1z M9.2,28.7
				h2.3v-4.3h3.9v-1.8h-3.9v-2.4h4.1v-1.8H9.2V28.7z M30.7,17.4h2.5L30.3,7.1h-3.2l-3,10.3h2.3l0.7-2.3h3L30.7,17.4z M29.6,13.4
				h-2.2l1-4.5h0.2L29.6,13.4z M40.5,23.5c0,3,1.4,5.4,4.4,5.4s4.4-2.3,4.4-5.4s-1.4-5.4-4.4-5.4S40.5,20.5,40.5,23.5z M43,23.5
				c0-2,0.5-3.6,1.9-3.6s1.9,1.6,1.9,3.6s-0.5,3.6-1.9,3.6S43,25.5,43,23.5z M27.5,50c0.1-1,0.3-2.6,0.3-4.5c0-0.5,0-0.2,0-0.3
				c0-2.6-0.1-3.5-1.9-4.1c-2.7-0.9-3.8-4-3.2-7.7l-9.1-23.2c-4.8,4.2-7.7,10.3-7.7,17.1C5.8,39.5,15.5,49.5,27.5,50z M28.6,35.2
				c-3.6-0.9-5-4.2-5-7.1l-8-19.6c-0.5,0.4-1,0.7-1.5,1.1c1.8,4.2,9.7,22.9,9.7,22.9c1.4,3.4,3.9,2.3,4.6,5c0.1,0.7,0.2,1,0.2,1h0.3
				c0,0,0-0.3,0.2-1c0.6-2.8,3.2-1.7,4.6-5c0,0,7.9-18.8,9.7-22.9c-0.5-0.4-1-0.8-1.5-1.1l-8,19.6C33.6,31,32.3,34.4,28.6,35.2
				L28.6,35.2z M28.6,29.3c-1.5-0.3-3.5-1.9-3.7-3.8c-0.1-0.7-0.2-1-0.1-2.4l-7-15.9c-0.6,0.3-1.1,0.6-1.7,1
				c2.1,4.7,8.5,19.1,8.5,19.1c1,2.1,2.8,2.2,3.4,3.4c0.4,0.7,0.4,1.4,0.4,1.5h0.2c0-0.1,0-0.7,0.4-1.5c0.6-1.3,2.4-1.3,3.4-3.4
				c0,0,6.4-14.4,8.5-19.1c-0.5-0.3-1.1-0.7-1.7-1l-7,15.9c0.1,1.5,0,1.7-0.1,2.4C32.1,27.4,30.2,29,28.6,29.3L28.6,29.3z
				 M28.7,26.6l0.1-0.9c0.4-2,1.9-1.8,2.9-3.7l0,0c0-0.1,5-10.7,7.1-15.2c-3.1-1.5-6.5-2.4-10.2-2.4s-7.1,0.9-10.2,2.4
				c2.1,4.4,7,15.1,7.1,15.2l0,0c1,2,2.5,1.7,2.9,3.7l0.1,0.9H28.7z M51.5,27.2c0-6.8-3-12.9-7.7-17.1l-9.1,23.2
				c0.6,3.8-0.5,6.8-3.2,7.7c-1.8,0.6-1.9,1.5-1.9,4.1c0,0.1,0-0.2,0,0.3c0,1.9,0.1,3.5,0.3,4.5C41.8,49.5,51.5,39.5,51.5,27.2z
				 M13,34c0,0,0.3,0.7,0.6,1.2s0.6,1.1,0.6,1.1l-0.6,0.3c0,0-0.5-0.8-0.9-1.6c-0.1,0.1-0.8,0.4-1,0.5c0.1,0.1,0.8,1.5,0.8,1.5
				L12,37.4c0,0-0.7-1.5-0.8-1.6c-0.1,0.1-1.7,0.9-1.7,0.9L9.2,36L13,34L13,34z M15.4,37.9l0.5,0.6l-3.3,2.8l-0.5-0.6L15.4,37.9
				L15.4,37.9z M18.5,40.8l0.7,0.5l-0.9,4.6l-0.8-0.4c0,0,0.2-0.9,0.2-1c0,0-0.5-0.3-0.9-0.6s-0.9-0.7-0.9-0.7
				c-0.1,0.1-0.9,0.5-0.9,0.5l-0.6-0.5L18.5,40.8L18.5,40.8z M16.6,42.8c0.1,0.1,0.4,0.3,0.7,0.5c0.3,0.2,0.6,0.4,0.7,0.4
				c0-0.2,0.3-1.7,0.4-2C18.1,41.9,16.8,42.7,16.6,42.8z M21.3,42.5c0,0,0.7,0.3,1.7,0.7c0.7,0.2,1.3,0.4,1.8,0.5l-0.2,0.7
				c0,0-0.5-0.1-1.4-0.4c-0.1,0.1-1.2,3.4-1.2,3.4l-0.8-0.3c0,0,1.1-3.3,1.2-3.4c-0.8-0.3-1.4-0.6-1.4-0.6L21.3,42.5z M35,43.4
				c0.3,0.1,0.5,0.4,0.6,0.8c0.1,0.2,0.1,0.3,0.1,0.5c0,0.6-0.4,1.1-1.2,1.3c0,0-0.4,0.1-0.5,0.2c0,0.1,0.5,1.6,0.5,1.6L33.7,48
				l-1.3-4.2l1.1-0.4C34.2,43.2,34.7,43.2,35,43.4z M33.4,44.2c0,0.1,0.4,1.1,0.4,1.3c0.2-0.1,0.5-0.2,0.5-0.2
				c0.1,0,0.4-0.1,0.5-0.4c0-0.1,0.1-0.2,0.1-0.3s0-0.1,0-0.2c-0.1-0.1-0.1-0.3-0.3-0.3c-0.2-0.1-0.5-0.1-0.7,0
				C33.8,44,33.5,44.1,33.4,44.2z M37.6,41.5l3.8,2.8l-0.7,0.5l-0.8-0.6c0,0-0.4,0.3-0.9,0.5c-0.4,0.2-0.8,0.5-0.9,0.5
				c0,0.1,0.2,1,0.2,1l-0.7,0.3L37,41.9L37.6,41.5z M38,44.5c0.1-0.1,0.4-0.2,0.7-0.4s0.5-0.3,0.6-0.4c-0.1-0.1-1.3-1-1.6-1.2
				C37.8,42.8,38,44.3,38,44.5z M41.9,37.8l3.3,2.9l-0.6,0.7c0,0-3.1-0.9-3.6-1c0.3,0.3,2.3,2.4,2.3,2.4l-0.6,0.5l-3.1-3.2l0.7-0.7
				c0,0,3,0.9,3.4,1c-0.3-0.3-2.4-2.1-2.4-2.1L41.9,37.8z M43.4,35.6l3.8,2.2l-0.4,0.7L43,36.2L43.4,35.6z M45,31.9l0.7,0.3
				l-0.1,0.1c-0.2,0.3-0.3,0.4-0.4,0.7c-0.1,0.1-0.1,0.4,0,0.6c0.1,0.1,0.1,0.2,0.3,0.2c0.3,0.1,0.5-0.2,0.8-0.4
				c0.4-0.4,0.9-0.9,1.7-0.6c0.8,0.3,1.1,1,0.8,2c-0.1,0.3-0.3,0.6-0.5,0.8v0.1l-0.7-0.3l0.1-0.1c0.1-0.1,0.4-0.4,0.5-0.7
				s0.1-0.8-0.3-0.9c-0.4-0.1-0.6,0.2-0.9,0.5c-0.4,0.4-0.8,0.9-1.6,0.6c-0.3-0.1-0.6-0.3-0.7-0.6c-0.2-0.3-0.2-0.7,0-1.2
				C44.6,32.5,44.8,32.2,45,31.9L45,31.9z"/>
		</g>
	</g>
	<g>
		<g>
			<path class="st0" d="M67.4,6.7c2.1,0,4,1.6,4,5.2s-1.9,5.2-4,5.2s-4-1.6-4-5.2S65.3,6.7,67.4,6.7z M67.4,15.6
				c1.2,0,2.1-1,2.1-3.8S68.6,8,67.4,8s-2.1,1-2.1,3.8S66.2,15.6,67.4,15.6z"/>
		</g>
		<g>
			<path class="st0" d="M73,10.7c0-0.5,0-0.9-0.1-1.2h1.6c0,0.5,0.1,0.9,0.1,1.4l0,0c0.2-0.6,0.8-1.5,1.9-1.5c0.1,0,0.2,0,0.3,0v1.7
				c-0.2,0-0.3-0.1-0.5-0.1c-0.7,0-1.5,0.5-1.5,1.8v4.1H73V10.7z"/>
		</g>
		<g>
			<path class="st0" d="M78.1,18.1c0.4,0.2,1.3,0.6,2.2,0.6c1.7,0,2-1.2,2-2.4v-0.7l0,0c-0.3,0.6-0.8,1.3-2,1.3
				c-1,0-2.6-0.7-2.6-3.7c0-2.1,0.7-3.9,2.7-3.9c1.1,0,1.6,0.6,2,1.3h0.1c0-0.4,0-0.8,0.1-1.2H84c0,0.4-0.1,0.8-0.1,1.2v5.5
				c0,2.3-0.7,4-3.4,4c-1.2,0-2.1-0.3-2.6-0.5L78.1,18.1z M80.7,15.6c1.1,0,1.6-0.8,1.6-2.5c0-1.6-0.6-2.4-1.4-2.4
				c-0.9,0-1.3,0.9-1.3,2.4C79.5,14.8,80.1,15.6,80.7,15.6z"/>
		</g>
		<g>
			<path class="st0" d="M86,9.9c0.5-0.2,1.2-0.5,2.4-0.5c2.3,0,2.8,1.1,2.8,3v3.3c0,0.5,0.1,1,0.1,1.3h-1.6c-0.1-0.3-0.1-0.7-0.1-1
				l0,0c-0.5,0.6-1,1.1-2.1,1.1c-1.2,0-2.2-0.8-2.2-2.2c0-2,1.7-2.5,3.9-2.5h0.4V12c0-0.7-0.4-1.4-1.4-1.4c-0.9,0-1.7,0.4-2,0.7
				L86,9.9z M89.5,13.3h-0.2c-1.5,0-2.4,0.3-2.4,1.4c0,0.7,0.5,1.1,1.1,1.1c1.1,0,1.5-0.8,1.5-2.1C89.5,13.7,89.5,13.3,89.5,13.3z"
				/>
		</g>
		<g>
			<path class="st0" d="M92.9,10.7c0-0.5,0-0.9-0.1-1.2h1.7c0,0.4,0.1,0.8,0.1,1.1l0,0c0.3-0.5,0.8-1.3,2-1.3c1.7,0,2.2,1.3,2.2,2.8
				v4.8H97v-4.5c0-1.1-0.3-1.6-1-1.6c-0.9,0-1.3,0.8-1.3,1.7v4.3h-1.8L92.9,10.7L92.9,10.7z"/>
		</g>
		<g>
			<path class="st0" d="M100.5,6.3h1.9v1.8h-1.9V6.3z M100.5,9.5h1.8V17h-1.8V9.5z"/>
		</g>
		<g>
			<path class="st0" d="M103.7,15.4l3.2-4.5h-3.1V9.5h4.9V11l-3.1,4.6h3.2V17h-5.1V15.4L103.7,15.4z"/>
		</g>
		<g>
			<path class="st0" d="M110.4,9.9c0.5-0.2,1.2-0.5,2.4-0.5c2.3,0,2.8,1.1,2.8,3v3.3c0,0.5,0.1,1,0.1,1.3h-1.6
				c-0.1-0.3-0.1-0.7-0.1-1l0,0c-0.5,0.6-1,1.1-2.1,1.1c-1.2,0-2.2-0.8-2.2-2.2c0-2,1.7-2.5,3.9-2.5h0.4V12c0-0.7-0.4-1.4-1.4-1.4
				c-0.9,0-1.7,0.4-2,0.7L110.4,9.9z M113.9,13.3h-0.2c-1.5,0-2.4,0.3-2.4,1.4c0,0.7,0.5,1.1,1.1,1.1c1.1,0,1.5-0.8,1.5-2.1
				C113.9,13.7,113.9,13.3,113.9,13.3z"/>
		</g>
		<g>
			<path class="st0" d="M122.3,16.7c-0.4,0.2-1,0.3-1.8,0.3c-2.5,0-3.5-1.7-3.5-3.8s1.1-3.8,3.6-3.8c0.6,0,1.2,0.2,1.6,0.3l-0.1,1.4
				c-0.3-0.2-0.8-0.4-1.3-0.4c-1.4,0-1.9,0.9-1.9,2.5c0,1.4,0.7,2.5,2,2.5c0.4,0,1-0.2,1.3-0.4L122.3,16.7z"/>
		</g>
		<g>
			<path class="st0" d="M123.6,6.3h1.9v1.8h-1.9V6.3z M123.6,9.5h1.8V17h-1.8V9.5z"/>
		</g>
		<g>
			<path class="st0" d="M130.3,9.3c1.5,0,3.3,0.8,3.3,3.8c0,3.1-1.7,3.8-3.3,3.8s-3.3-0.7-3.3-3.8C127,10.1,128.7,9.3,130.3,9.3z
				 M130.3,15.8c1.2,0,1.4-1.3,1.4-2.6s-0.3-2.6-1.4-2.6c-1.2,0-1.4,1.3-1.4,2.6S129.1,15.8,130.3,15.8z M130.3,6.5h1.7l-1.5,2.1
				h-1.1L130.3,6.5z"/>
		</g>
		<g>
			<path class="st0" d="M134.9,10.7c0-0.5,0-0.9-0.1-1.2h1.7c0,0.4,0.1,0.8,0.1,1.1l0,0c0.3-0.5,0.8-1.3,2-1.3
				c1.7,0,2.2,1.3,2.2,2.8v4.8H139v-4.5c0-1.1-0.3-1.6-1-1.6c-0.9,0-1.3,0.8-1.3,1.7v4.3h-1.8V10.7z"/>
		</g>
		<g>
			<path class="st0" d="M152.3,6v9.6c0,0.5,0,1,0.1,1.3h-1.7c0-0.2-0.1-0.7-0.1-1.2l0,0c-0.3,0.6-0.8,1.3-2,1.3
				c-1.9,0-2.6-1.8-2.6-3.8c0-2.4,1-3.8,2.6-3.8c1.1,0,1.7,0.6,1.9,1.2l0,0V6H152.3L152.3,6z M149.1,15.7c1.1,0,1.4-1.1,1.4-2.6
				c0-1.4-0.4-2.5-1.4-2.5s-1.3,1-1.3,2.5C147.8,14.8,148.1,15.7,149.1,15.7z"/>
		</g>
		<g>
			<path class="st0" d="M159.5,16.5c-0.4,0.2-1.2,0.5-2.2,0.5c-2.4,0-3.4-1.7-3.4-3.7c0-2.2,1.2-4,3.1-4c1.6,0,3,0.9,3,4v0.3h-4.3
				c0,1.3,0.5,2,1.9,2c1.1,0,1.6-0.3,1.9-0.6V16.5z M158.1,12.5c0-1.3-0.4-2-1.2-2c-0.9,0-1.3,1-1.3,2H158.1z"/>
		</g>
		<g>
			<path class="st0" d="M165.2,6h1.8v10.9h-1.8V6z"/>
		</g>
		<g>
			<path class="st0" d="M169.1,9.9c0.5-0.2,1.2-0.5,2.4-0.5c2.3,0,2.8,1.1,2.8,3v3.3c0,0.5,0.1,1,0.1,1.3h-1.6
				c-0.1-0.3-0.1-0.7-0.1-1l0,0c-0.5,0.6-1,1.1-2.1,1.1c-1.2,0-2.2-0.8-2.2-2.2c0-2,1.7-2.5,3.9-2.5h0.4V12c0-0.7-0.4-1.4-1.4-1.4
				c-0.9,0-1.7,0.4-2,0.7L169.1,9.9z M172.6,13.3h-0.2c-1.5,0-2.4,0.3-2.4,1.4c0,0.7,0.5,1.1,1.1,1.1c1.1,0,1.5-0.8,1.5-2.1
				L172.6,13.3L172.6,13.3z"/>
		</g>
		<g>
			<path class="st0" d="M175.8,15.2c0.3,0.1,1,0.5,1.9,0.5c0.7,0,1.2-0.2,1.2-0.7c0-0.3-0.1-0.6-0.8-0.9l-0.7-0.4
				c-0.7-0.5-1.6-0.9-1.6-2.1c0-1,1-2.1,2.6-2.1c1,0,1.7,0.2,1.9,0.3l-0.1,1.4c-0.5-0.2-0.9-0.3-1.6-0.3c-0.7,0-1,0.3-1,0.7
				s0.3,0.6,0.8,0.9l0.9,0.6c0.9,0.6,1.4,1,1.4,1.9c0,1.4-1.2,2.2-2.8,2.2c-0.9,0-1.7-0.2-2.1-0.4L175.8,15.2z"/>
		</g>
		<g>
			<path class="st0" d="M185.9,6.8h2.2l3.4,7.9l0,0V6.8h1.7v10.1H191L187.6,9l0,0v7.9h-1.7L185.9,6.8L185.9,6.8z"/>
		</g>
		<g>
			<path class="st0" d="M195.4,9.9c0.5-0.2,1.2-0.5,2.4-0.5c2.3,0,2.9,1.1,2.9,3v3.3c0,0.5,0.1,1,0.1,1.3h-1.6
				c-0.1-0.3-0.1-0.7-0.1-1l0,0c-0.5,0.6-1,1.1-2.1,1.1c-1.2,0-2.2-0.8-2.2-2.2c0-2,1.7-2.5,3.9-2.5h0.4V12c0-0.7-0.4-1.4-1.4-1.4
				c-0.9,0-1.7,0.4-2,0.7L195.4,9.9z M198.9,13.3h-0.2c-1.5,0-2.4,0.3-2.4,1.4c0,0.7,0.5,1.1,1.1,1.1c1.1,0,1.5-0.8,1.5-2.1
				L198.9,13.3L198.9,13.3z"/>
		</g>
		<g>
			<path class="st0" d="M207.3,16.7c-0.4,0.2-1,0.3-1.8,0.3c-2.5,0-3.5-1.7-3.5-3.8s1.1-3.8,3.6-3.8c0.6,0,1.2,0.2,1.6,0.3l-0.1,1.4
				c-0.3-0.2-0.8-0.4-1.3-0.4c-1.4,0-1.9,0.9-1.9,2.5c0,1.4,0.7,2.5,2,2.5c0.4,0,1-0.2,1.3-0.4L207.3,16.7z"/>
		</g>
		<g>
			<path class="st0" d="M208.5,6.3h1.9v1.8h-1.9V6.3z M208.6,9.5h1.8V17h-1.8V9.5z"/>
		</g>
		<g>
			<path class="st0" d="M215.2,9.3c1.5,0,3.3,0.8,3.3,3.8c0,3.1-1.7,3.8-3.3,3.8s-3.3-0.7-3.3-3.8C212,10.1,213.7,9.3,215.2,9.3z
				 M215.2,15.8c1.2,0,1.4-1.3,1.4-2.6s-0.3-2.6-1.4-2.6c-1.2,0-1.4,1.3-1.4,2.6C213.8,14.4,214.1,15.8,215.2,15.8z"/>
		</g>
		<g>
			<path class="st0" d="M219.9,10.7c0-0.5,0-0.9-0.1-1.2h1.7c0,0.4,0.1,0.8,0.1,1.1l0,0c0.3-0.5,0.8-1.3,2-1.3
				c1.7,0,2.2,1.3,2.2,2.8v4.8H224v-4.5c0-1.1-0.3-1.6-1-1.6c-0.9,0-1.3,0.8-1.3,1.7v4.3h-1.8V10.7L219.9,10.7z"/>
		</g>
		<g>
			<path class="st0" d="M232.9,16.5c-0.4,0.2-1.2,0.5-2.2,0.5c-2.4,0-3.4-1.7-3.4-3.7c0-2.2,1.2-4,3.1-4c1.6,0,3,0.9,3,4v0.3H229
				c0,1.3,0.5,2,1.9,2c1.1,0,1.6-0.3,1.9-0.6L232.9,16.5z M231.5,12.5c0-1.3-0.4-2-1.2-2c-0.9,0-1.3,1-1.3,2H231.5z"/>
		</g>
		<g>
			<path class="st0" d="M234.5,15.2c0.3,0.1,1,0.5,1.9,0.5c0.7,0,1.2-0.2,1.2-0.7c0-0.3-0.1-0.6-0.8-0.9l-0.7-0.4
				c-0.7-0.5-1.6-0.9-1.6-2.1c0-1,1-2.1,2.6-2.1c1,0,1.7,0.2,1.9,0.3l-0.1,1.4c-0.5-0.2-0.9-0.3-1.6-0.3c-0.7,0-1,0.3-1,0.7
				s0.3,0.6,0.8,0.9l0.9,0.6c0.9,0.6,1.4,1,1.4,1.9c0,1.4-1.2,2.2-2.8,2.2c-0.9,0-1.7-0.2-2.1-0.4L234.5,15.2z"/>
		</g>
		<g>
			<path class="st0" d="M65.6,23.2v6.5c0,1.7,0.5,2.2,1.6,2.2s1.6-0.5,1.6-2.2v-6.5h1.9v6.5c0,2.7-1.5,3.7-3.4,3.7s-3.4-1-3.4-3.7
				v-6.5H65.6z"/>
		</g>
		<g>
			<path class="st0" d="M72.4,27c0-0.5,0-0.9-0.1-1.2H74c0,0.4,0.1,0.8,0.1,1.1l0,0c0.3-0.5,0.8-1.3,2-1.3c1.7,0,2.2,1.3,2.2,2.8
				v4.8h-1.8v-4.5c0-1.1-0.3-1.6-1-1.6c-0.9,0-1.3,0.8-1.3,1.7v4.3h-1.8L72.4,27L72.4,27z"/>
		</g>
		<g>
			<path class="st0" d="M80,22.6h1.9v1.8H80V22.6z M80.1,25.8h1.8v7.5h-1.8V25.8z"/>
		</g>
		<g>
			<path class="st0" d="M89.8,22.4V32c0,0.5,0,1,0.1,1.3h-1.7c0-0.2-0.1-0.7-0.1-1.2l0,0c-0.3,0.6-0.8,1.3-2,1.3
				c-1.9,0-2.6-1.8-2.6-3.8c0-2.4,1-3.8,2.6-3.8c1.1,0,1.7,0.6,1.9,1.2l0,0v-4.5C88,22.4,89.8,22.4,89.8,22.4z M86.6,32.1
				c1.1,0,1.4-1.1,1.4-2.6c0-1.4-0.4-2.5-1.4-2.5s-1.3,1-1.3,2.5C85.2,31.2,85.5,32.1,86.6,32.1z"/>
		</g>
		<g>
			<path class="st0" d="M91.8,26.2c0.5-0.2,1.2-0.5,2.4-0.5c2.3,0,2.8,1.1,2.8,3V32c0,0.5,0.1,1,0.1,1.3h-1.6
				c-0.1-0.3-0.1-0.7-0.1-1l0,0c-0.5,0.6-1,1.1-2.1,1.1c-1.2,0-2.2-0.8-2.2-2.2c0-2,1.7-2.5,3.9-2.5h0.4v-0.3c0-0.7-0.4-1.4-1.4-1.4
				c-0.9,0-1.7,0.4-2,0.7L91.8,26.2z M95.3,29.6h-0.2c-1.5,0-2.4,0.3-2.4,1.4c0,0.7,0.5,1.1,1.1,1.1c1.1,0,1.5-0.8,1.5-2.1
				C95.3,30,95.3,29.6,95.3,29.6z"/>
		</g>
		<g>
			<path class="st0" d="M98.4,31.5c0.3,0.1,1,0.5,1.9,0.5c0.7,0,1.2-0.2,1.2-0.7c0-0.3-0.1-0.6-0.8-0.9L100,30
				c-0.7-0.5-1.6-0.9-1.6-2.1c0-1,1-2.1,2.6-2.1c1,0,1.7,0.2,1.9,0.3l-0.1,1.4c-0.5-0.2-0.9-0.3-1.6-0.3s-1,0.3-1,0.7
				c0,0.4,0.3,0.6,0.8,0.9l0.9,0.6c0.9,0.6,1.4,1,1.4,1.9c0,1.4-1.2,2.2-2.8,2.2c-0.9,0-1.7-0.2-2.1-0.4L98.4,31.5z"/>
		</g>
		<g>
			<path class="st0" d="M108.3,27.1c0-0.5,0-1-0.1-1.3h1.7c0,0.2,0.1,0.7,0.1,1.2l0,0c0.3-0.6,0.8-1.3,2-1.3c1.9,0,2.6,1.8,2.6,3.8
				c0,2.4-1,3.8-2.6,3.8c-1.1,0-1.7-0.6-1.9-1.2l0,0v4.2h-1.8C108.3,36.4,108.3,27.1,108.3,27.1z M111.5,32.1c1,0,1.3-1,1.3-2.5
				c0-1.7-0.3-2.6-1.3-2.6c-1.1,0-1.4,1.1-1.4,2.6C110.1,31,110.5,32.1,111.5,32.1z"/>
		</g>
		<g>
			<path class="st0" d="M116.4,26.2c0.5-0.2,1.2-0.5,2.4-0.5c2.3,0,2.8,1.1,2.8,3V32c0,0.5,0.1,1,0.1,1.3h-1.6
				c-0.1-0.3-0.1-0.7-0.1-1l0,0c-0.5,0.6-1,1.1-2.1,1.1c-1.2,0-2.2-0.8-2.2-2.2c0-2,1.7-2.5,3.9-2.5h0.4v-0.3c0-0.7-0.4-1.4-1.4-1.4
				c-0.9,0-1.7,0.4-2,0.7L116.4,26.2z M120,29.6h-0.2c-1.5,0-2.4,0.3-2.4,1.4c0,0.7,0.5,1.1,1.1,1.1c1.1,0,1.5-0.8,1.5-2.1
				C120,30,120,29.6,120,29.6z"/>
		</g>
		<g>
			<path class="st0" d="M123.4,27c0-0.5,0-0.9-0.1-1.2h1.6c0,0.5,0.1,0.9,0.1,1.4l0,0c0.2-0.6,0.8-1.5,1.9-1.5c0.1,0,0.2,0,0.3,0
				v1.7c-0.2,0-0.3-0.1-0.5-0.1c-0.7,0-1.5,0.5-1.5,1.8v4.1h-1.8V27z"/>
		</g>
		<g>
			<path class="st0" d="M128.6,26.2c0.5-0.2,1.2-0.5,2.4-0.5c2.3,0,2.9,1.1,2.9,3V32c0,0.5,0.1,1,0.1,1.3h-1.6
				c-0.1-0.3-0.1-0.7-0.1-1l0,0c-0.5,0.6-1,1.1-2.1,1.1c-1.2,0-2.2-0.8-2.2-2.2c0-2,1.7-2.5,3.9-2.5h0.4v-0.3c0-0.7-0.4-1.4-1.4-1.4
				c-0.9,0-1.7,0.4-2,0.7L128.6,26.2z M132.1,29.6H132c-1.5,0-2.4,0.3-2.4,1.4c0,0.7,0.5,1.1,1.1,1.1c1.1,0,1.5-0.8,1.5-2.1
				C132.1,30,132.1,29.6,132.1,29.6z"/>
		</g>
		<g>
			<path class="st0" d="M139.4,22.4h1.8v10.9h-1.8V22.4z"/>
		</g>
		<g>
			<path class="st0" d="M143.4,26.2c0.5-0.2,1.2-0.5,2.4-0.5c2.3,0,2.9,1.1,2.9,3V32c0,0.5,0.1,1,0.1,1.3h-1.6
				c-0.1-0.3-0.1-0.7-0.1-1l0,0c-0.5,0.6-1,1.1-2.1,1.1c-1.2,0-2.2-0.8-2.2-2.2c0-2,1.7-2.5,3.9-2.5h0.4v-0.3c0-0.7-0.4-1.4-1.4-1.4
				c-0.9,0-1.7,0.4-2,0.7L143.4,26.2z M146.9,29.6h-0.2c-1.5,0-2.4,0.3-2.4,1.4c0,0.7,0.5,1.1,1.1,1.1c1.1,0,1.5-0.8,1.5-2.1
				C146.9,30,146.9,29.6,146.9,29.6z"/>
		</g>
		<g>
			<path class="st0" d="M158.5,30.8H155l-0.7,2.4h-1.9l3.4-10.1h2l3.3,10.1h-1.9L158.5,30.8z M158.1,29.4l-1.3-4.7l0,0l-1.4,4.7
				C155.4,29.4,158.1,29.4,158.1,29.4z"/>
		</g>
		<g>
			<path class="st0" d="M162.2,22.4h1.8v10.9h-1.8V22.4z"/>
		</g>
		<g>
			<path class="st0" d="M165.9,22.6h1.9v1.8h-1.9V22.6z M166,25.8h1.8v7.5H166V25.8z"/>
		</g>
		<g>
			<path class="st0" d="M169.5,27c0-0.5,0-0.9-0.1-1.2h1.8c0,0.4,0.1,0.8,0.1,1.2l0,0c0.3-0.6,0.9-1.3,1.9-1.3
				c1.3,0,1.7,0.8,1.9,1.2c0.4-0.5,0.9-1.2,2-1.2c1.6,0,2.1,1.2,2.1,3v4.6h-1.8v-4.7c0-0.9-0.3-1.4-1-1.4c-0.8,0-1.2,0.7-1.2,1.6
				v4.5h-1.8v-4.7c0-0.9-0.3-1.4-0.9-1.4c-0.8,0-1.2,0.7-1.2,1.6v4.5h-1.8V27L169.5,27z"/>
		</g>
		<g>
			<path class="st0" d="M186.3,32.9c-0.4,0.2-1.2,0.5-2.2,0.5c-2.4,0-3.4-1.7-3.4-3.7c0-2.2,1.2-4,3.1-4c1.6,0,3,0.9,3,4V30h-4.3
				c0,1.3,0.5,2,1.9,2c1.1,0,1.6-0.3,1.9-0.6V32.9z M184.9,28.9c0-1.3-0.4-2-1.2-2c-0.9,0-1.3,1-1.3,2H184.9z"/>
		</g>
		<g>
			<path class="st0" d="M188.1,27c0-0.5,0-0.9-0.1-1.2h1.7c0,0.4,0.1,0.8,0.1,1.1l0,0c0.3-0.5,0.8-1.3,2-1.3c1.7,0,2.2,1.3,2.2,2.8
				v4.8h-1.8v-4.5c0-1.1-0.3-1.6-1-1.6c-0.9,0-1.3,0.8-1.3,1.7v4.3h-1.8L188.1,27L188.1,27z"/>
		</g>
		<g>
			<path class="st0" d="M196.2,24.3l1.8-0.5v2.1h1.5v1.3H198V31c0,0.8,0.3,1,0.8,1c0.3,0,0.5-0.1,0.7-0.2v1.3
				c-0.3,0.1-0.7,0.2-1.2,0.2c-1.3,0-2.1-0.6-2.1-2.2V27H195v-1.3h1.2V24.3z"/>
		</g>
		<g>
			<path class="st0" d="M201,26.2c0.5-0.2,1.2-0.5,2.4-0.5c2.3,0,2.9,1.1,2.9,3V32c0,0.5,0.1,1,0.1,1.3h-1.6c-0.1-0.3-0.1-0.7-0.1-1
				l0,0c-0.5,0.6-1,1.1-2.1,1.1c-1.2,0-2.2-0.8-2.2-2.2c0-2,1.7-2.5,3.9-2.5h0.4v-0.3c0-0.7-0.4-1.4-1.4-1.4c-0.9,0-1.7,0.4-2,0.7
				L201,26.2z M204.6,29.6h-0.2c-1.5,0-2.4,0.3-2.4,1.4c0,0.7,0.5,1.1,1.1,1.1c1.1,0,1.5-0.8,1.5-2.1L204.6,29.6L204.6,29.6z"/>
		</g>
		<g>
			<path class="st0" d="M213,33.1c-0.4,0.2-1,0.3-1.8,0.3c-2.5,0-3.5-1.7-3.5-3.8s1.1-3.8,3.6-3.8c0.6,0,1.2,0.2,1.6,0.3l-0.1,1.4
				c-0.3-0.2-0.8-0.4-1.3-0.4c-1.4,0-1.9,0.9-1.9,2.5c0,1.4,0.7,2.5,2,2.5c0.4,0,1-0.2,1.3-0.4L213,33.1z"/>
		</g>
		<g>
			<path class="st0" d="M214.2,22.6h1.9v1.8h-1.9V22.6z M214.2,25.8h1.8v7.5h-1.8V25.8z"/>
		</g>
		<g>
			<path class="st0" d="M220.9,25.7c1.5,0,3.3,0.8,3.3,3.8c0,3.1-1.7,3.8-3.3,3.8s-3.3-0.7-3.3-3.8
				C217.6,26.5,219.4,25.7,220.9,25.7z M220.9,32.1c1.2,0,1.4-1.3,1.4-2.6c0-1.2-0.3-2.6-1.4-2.6s-1.4,1.3-1.4,2.6
				S219.7,32.1,220.9,32.1z M221,22.9h1.7l-1.5,2.1H220L221,22.9z"/>
		</g>
		<g>
			<path class="st0" d="M225.6,27c0-0.5,0-0.9-0.1-1.2h1.7c0,0.4,0.1,0.8,0.1,1.1l0,0c0.3-0.5,0.8-1.3,2-1.3c1.7,0,2.2,1.3,2.2,2.8
				v4.8h-1.8v-4.5c0-1.1-0.3-1.6-1-1.6c-0.9,0-1.3,0.8-1.3,1.7v4.3h-1.8L225.6,27L225.6,27z"/>
		</g>
		<g>
			<path class="st0" d="M66.2,47.8L66.2,47.8l1.5-5.6h1.7L66.6,51c-0.3,1-0.9,1.8-2.1,1.8c-0.5,0-0.9-0.1-1.1-0.2l0.1-1.4
				c0.2,0.1,0.4,0.1,0.7,0.1c0.5,0,0.8-0.3,1-1.1l0.1-0.6l-2.5-7.5h1.9L66.2,47.8z"/>
		</g>
		<g>
			<path class="st0" d="M74.2,38.8H76v10.9h-1.8V38.8z"/>
		</g>
		<g>
			<path class="st0" d="M78.1,42.6c0.5-0.2,1.2-0.5,2.4-0.5c2.3,0,2.9,1.1,2.9,3v3.3c0,0.5,0.1,1,0.1,1.3h-1.6
				c-0.1-0.3-0.1-0.7-0.1-1l0,0c-0.5,0.6-1,1.1-2.1,1.1c-1.2,0-2.2-0.8-2.2-2.2c0-2,1.7-2.5,3.9-2.5h0.4v-0.3c0-0.7-0.4-1.4-1.4-1.4
				c-0.9,0-1.7,0.4-2,0.7L78.1,42.6z M81.6,46h-0.2C80,46,79,46.3,79,47.4c0,0.7,0.5,1.1,1.1,1.1c1.1,0,1.5-0.8,1.5-2.1V46z"/>
		</g>
		<g>
			<path class="st0" d="M93.3,47.2h-3.5l-0.7,2.4h-1.9l3.4-10.1h2l3.3,10.1H94L93.3,47.2z M92.9,45.8l-1.3-4.7l0,0l-1.4,4.7H92.9z"
				/>
		</g>
		<g>
			<path class="st0" d="M97,50.8c0.4,0.2,1.3,0.6,2.2,0.6c1.7,0,2-1.2,2-2.4v-0.7l0,0c-0.3,0.6-0.8,1.3-2,1.3c-1,0-2.6-0.7-2.6-3.7
				c0-2.1,0.7-3.9,2.7-3.9c1.1,0,1.6,0.6,2,1.3h0.1c0-0.4,0-0.8,0.1-1.2h1.6c0,0.4-0.1,0.8-0.1,1.2v5.5c0,2.3-0.7,4-3.4,4
				c-1.2,0-2.1-0.3-2.6-0.5L97,50.8z M99.6,48.3c1.1,0,1.6-0.8,1.6-2.5c0-1.6-0.6-2.4-1.4-2.4c-0.9,0-1.3,0.9-1.3,2.4
				C98.4,47.6,99,48.3,99.6,48.3z"/>
		</g>
		<g>
			<path class="st0" d="M104.6,43.4c0-0.5,0-0.9-0.1-1.2h1.6c0,0.5,0.1,0.9,0.1,1.4l0,0c0.2-0.6,0.8-1.5,1.9-1.5c0.1,0,0.2,0,0.3,0
				v1.7c-0.2,0-0.3-0.1-0.5-0.1c-0.7,0-1.5,0.5-1.5,1.8v4.1h-1.8V43.4z"/>
		</g>
		<g>
			<path class="st0" d="M109.8,39h1.9v1.8h-1.9V39z M109.8,42.2h1.8v7.5h-1.8V42.2z"/>
		</g>
		<g>
			<path class="st0" d="M118.5,49.4c-0.4,0.2-1,0.3-1.8,0.3c-2.5,0-3.5-1.7-3.5-3.8s1.1-3.8,3.6-3.8c0.6,0,1.2,0.2,1.6,0.3l-0.1,1.4
				c-0.3-0.2-0.8-0.4-1.3-0.4c-1.4,0-1.9,0.9-1.9,2.5c0,1.4,0.7,2.5,2,2.5c0.4,0,1-0.2,1.3-0.4L118.5,49.4z"/>
		</g>
		<g>
			<path class="st0" d="M125.5,48.4c0,0.5,0,0.9,0.1,1.2h-1.7c0-0.4-0.1-0.8-0.1-1.1l0,0l0,0c-0.3,0.5-0.8,1.3-2,1.3
				c-1.7,0-2.2-1.3-2.2-2.8v-4.8h1.8v4.5c0,1.1,0.3,1.6,1.1,1.6c1,0,1.2-0.9,1.2-1.8v-4.3h1.8L125.5,48.4L125.5,48.4z"/>
		</g>
		<g>
			<path class="st0" d="M127.3,38.8h1.8v10.9h-1.8V38.8z"/>
		</g>
		<g>
			<path class="st0" d="M131.5,40.6l1.8-0.5v2.1h1.5v1.3h-1.5v3.9c0,0.8,0.3,1,0.8,1c0.3,0,0.5-0.1,0.7-0.2v1.3
				c-0.3,0.1-0.7,0.2-1.2,0.2c-1.3,0-2.1-0.6-2.1-2.2v-4.1h-1.2v-1.3h1.2V40.6z"/>
		</g>
		<g>
			<path class="st0" d="M141.8,48.4c0,0.5,0,0.9,0.1,1.2h-1.7c0-0.4-0.1-0.8-0.1-1.1l0,0l0,0c-0.3,0.5-0.8,1.3-2,1.3
				c-1.7,0-2.2-1.3-2.2-2.8v-4.8h1.8v4.5c0,1.1,0.3,1.6,1.1,1.6c1,0,1.2-0.9,1.2-1.8v-4.3h1.8L141.8,48.4L141.8,48.4z"/>
		</g>
		<g>
			<path class="st0" d="M143.5,43.4c0-0.5,0-0.9-0.1-1.2h1.6c0,0.5,0.1,0.9,0.1,1.4l0,0c0.2-0.6,0.8-1.5,1.9-1.5c0.1,0,0.2,0,0.3,0
				v1.7c-0.2,0-0.3-0.1-0.5-0.1c-0.7,0-1.5,0.5-1.5,1.8v4.1h-1.8V43.4z"/>
		</g>
		<g>
			<path class="st0" d="M148.8,42.6c0.5-0.2,1.2-0.5,2.4-0.5c2.3,0,2.9,1.1,2.9,3v3.3c0,0.5,0.1,1,0.1,1.3h-1.6
				c-0.1-0.3-0.1-0.7-0.1-1l0,0c-0.5,0.6-1,1.1-2.1,1.1c-1.2,0-2.2-0.8-2.2-2.2c0-2,1.7-2.5,3.9-2.5h0.4v-0.3c0-0.7-0.4-1.4-1.4-1.4
				c-0.9,0-1.7,0.4-2,0.7L148.8,42.6z M152.3,46h-0.2c-1.5,0-2.4,0.3-2.4,1.4c0,0.7,0.5,1.1,1.1,1.1c1.1,0,1.5-0.8,1.5-2.1
				C152.3,46.4,152.3,46,152.3,46z"/>
		</g>
	</g>
</g>
</svg>
