<?xml version="1.0" encoding="utf-8"?>
<!-- Generator: Adobe Illustrator 24.1.2, SVG Export Plug-In . SVG Version: 6.00 Build 0)  -->
<svg version="1.1" id="Layer_1" xmlns="http://www.w3.org/2000/svg" xmlns:xlink="http://www.w3.org/1999/xlink" x="0px" y="0px"
	 viewBox="0 0 45 89" style="enable-background:new 0 0 45 89;" xml:space="preserve">
<style type="text/css">
	.st0{fill:#FFFFFF;}
	.st1{fill:#19AEC0;}
</style>
<path class="st0" d="M22.4,2.2c11,0,20,9,20,20s-9,20-20,20s-20-9-20-20S11.4,2.2,22.4,2.2 M22.4,0C10.1,0,0.2,10,0.2,22.3
	s10,22.3,22.3,22.3s22.3-10,22.3-22.3S34.7,0,22.4,0L22.4,0z"/>
<path class="st1" d="M22.4,46.7c11,0,20,9,20,20s-9,20-20,20s-20-9-20-20S11.4,46.7,22.4,46.7 M22.4,44.5c-12.3,0-22.3,10-22.3,22.3
	S10.1,89,22.4,89s22.3-10,22.3-22.3S34.7,44.5,22.4,44.5L22.4,44.5z"/>
<path class="st1" d="M25.7,53.5L12.5,66.7l13.6,13.6c-0.8,0.3-1.7,0.4-2.6,0.5l-14.2-14l1.6-1.6L23,53.1
	C23.9,53.1,24.8,53.3,25.7,53.5z"/>
<path class="st0" d="M25.7,9L12.5,22.2l13.6,13.6c-0.8,0.3-1.7,0.4-2.6,0.5L9.3,22.2l1.6-1.6L23,8.5C23.9,8.6,24.8,8.8,25.7,9z"/>
</svg>
